<?xml version="1.0" encoding="utf-8"?>
<!-- Generator: Adobe Illustrator 19.2.1, SVG Export Plug-In . SVG Version: 6.00 Build 0)  -->
<svg version="1.1" id="Ebene_1" xmlns="http://www.w3.org/2000/svg" xmlns:xlink="http://www.w3.org/1999/xlink" x="0px" y="0px"
	 viewBox="0 0 841.8900146 595.2800293" style="enable-background:new 0 0 841.8900146 595.2800293;" xml:space="preserve">
<g>
	<polyline style="fill:#FFFFFF;" points="362.3239746,247.8429413 362.3239746,325.3761902 369.2305603,325.3761902 
		369.2305603,267.6925049 426.9772644,325.4396973 432.9507751,325.4396973 432.9507751,267.6925049 490.7289124,325.4703979 
		495.7377319,325.4703979 495.7377319,247.8429413 489.7639771,247.8429413 489.7639771,292.6450195 444.8670959,247.749649 
		427.0375061,247.749649 427.0375061,294.6363831 380.1821899,247.7803497 362.2616272,247.7803497 	"/>
	<polygon style="fill:#FFFFFF;" points="510.6714172,325.5001831 581.3587036,325.5001831 613.2800903,293.578186 
		634.1282349,325.3761902 659.9490967,325.3761902 629.1503296,277.7109985 657.9578247,248.8999786 651.1136475,248.8999786 
		626.7545776,273.2616272 611.0411377,248.8385468 584.4081421,248.8385468 610.543335,289.4698181 579.4300537,320.5836792 
		532.5111694,320.5836792 532.5111694,285.5518799 566.3634033,285.5518799 566.3634033,280.697876 532.5111694,280.697876 
		532.5111694,253.6925812 572.3369141,253.6925812 572.3369141,247.8429413 510.6714172,247.8429413 510.6714172,325.5001831 	"/>
	<path style="fill:#FFFFFF;" d="M303.147583,321.1448975c25.8855591,0,22.8988953-34.0994568,22.8988953-34.0994568
		c0-36.3396149-22.2770996-36.0908356-22.2770996-36.0908356s-23.0235901-3.1116638-23.0235901,36.0908356
		C280.7457886,287.0454407,278.1329651,321.1448975,303.147583,321.1448975L303.147583,321.1448975z M304.01828,245.2298737
		c48.1612549,0,48.1612549,40.8199615,48.1612549,40.8199615c0,44.0565186-48.6590576,41.6914368-48.6590576,41.6914368
		c-52.2717133,0-48.6622314-42.1893921-48.6622314-42.1893921C254.8582458,243.9853668,304.01828,245.2298737,304.01828,245.2298737
		L304.01828,245.2298737z"/>
	<path style="fill:#FFFFFF;" d="M250.750946,239.3801117c0,0-5.2267914-8.0887451-29.7427826-8.0887451
		c0,0-55.0075684-2.1161804-55.0075684,51.3977509c0,0-0.7456665,46.793457,50.775238,46.793457
		c0,0,32.108902-0.7456665,47.5407257-16.1776428l-4.7301636-6.4714355c0,0-11.9471283,12.6930542-33.1024017,12.6930542
		c0,0-32.3567505,4.4801941-32.3567505-40.322113c0,0-1.4934387-42.3132477,30.1155396-42.3132477
		c0,0,16.9250336-1.2445374,26.3833618,13.4406738v-11.3245239"/>
	<path style="fill-rule:evenodd;clip-rule:evenodd;fill:#FFFFFF;" d="M668.9535522,258.6629944
		c3.3602295,0,6.067749-2.723465,6.067749-6.0998688c0-3.3445435-2.7075195-6.0678406-6.067749-6.0678406
		c-3.3761597,0-6.0996094,2.7232971-6.0996094,6.0678406C662.8539429,255.9395294,665.5773926,258.6629944,668.9535522,258.6629944
		L668.9535522,258.6629944z M668.9535522,257.9304504c-2.9622803,0-5.3510132-2.3891144-5.3510132-5.3673248
		c0-2.9463196,2.3887329-5.3352051,5.3510132-5.3352051c2.9463501,0,5.335083,2.3888855,5.335083,5.3352051
		C674.2886353,255.5413361,671.8999023,257.9304504,668.9535522,257.9304504L668.9535522,257.9304504z M669.9250488,252.8339386
		c1.2102661-0.0318604,2.1501465-0.5255737,2.1501465-1.8634033c0-0.5732727-0.2550049-1.1784363-0.7645264-1.4651794
		c-0.5097656-0.3025818-1.0830688-0.3344421-1.6565552-0.3344421h-2.9620361v6.8005066h0.8280029v-3.1374817h1.5291138
		l1.9429321,3.1374817h0.9874268L669.9250488,252.8339386L669.9250488,252.8339386z M667.5200806,252.1808624v-2.4046936h1.9432373
		c0.8439941,0,1.7676392,0.1272583,1.7676392,1.1785583c0,1.385498-1.4810181,1.2261353-2.4365234,1.2261353H667.5200806
		L667.5200806,252.1808624z"/>
	<polygon style="fill:#FFFFFF;" points="177.1507416,358.3168945 178.9496918,358.3168945 178.9496918,346.4433289 
		178.9897614,346.4433289 183.4471283,358.3168945 185.0662994,358.3168945 189.52388,346.4433289 189.5638275,346.4433289 
		189.5638275,358.3168945 191.3628998,358.3168945 191.3628998,344.0447388 188.764267,344.0447388 184.2468109,356.0380554 
		179.7492523,344.0447388 177.1507416,344.0447388 177.1507416,358.3168945 	"/>
	<path style="fill-rule:evenodd;clip-rule:evenodd;fill:#FFFFFF;" d="M213.4289398,358.3168945h1.9589233l1.5990143-4.2976074
		h6.0366821l1.5591888,4.2976074h2.098938l-5.5769501-14.2721558h-2.0989532L213.4289398,358.3168945L213.4289398,358.3168945z
		 M220.0052795,345.7637634h0.0399628l2.3786774,6.65625h-4.8373871L220.0052795,345.7637634L220.0052795,345.7637634z"/>
	<path style="fill-rule:evenodd;clip-rule:evenodd;fill:#FFFFFF;" d="M250.5873566,350.6210632v-4.9771729h4.7174988
		c1.779007,0,2.5384979,1.0393372,2.5384979,2.4386597c0,2.0787964-1.5189819,2.5385132-3.298233,2.5385132H250.5873566
		L250.5873566,350.6210632z M248.688446,358.3168945h1.8989105v-6.0966797h4.6374512
		c1.839035,0,2.1788788,1.1793823,2.3787994,2.5784912c0.2798157,1.3994446-0.02005,2.9384766,0.5197144,3.5181885h2.1187439
		c-0.7994385-0.9794617-0.719635-2.5385132-0.8395386-3.9378357c-0.139801-1.399353-0.4796448-2.6185608-2.1387634-2.938385
		v-0.0400696c1.7190247-0.4795227,2.4786072-1.8988953,2.4786072-3.6177979c0-2.2788391-1.6591187-3.7380676-4.3375549-3.7380676
		h-6.7163696V358.3168945L248.688446,358.3168945z"/>
	<polygon style="fill:#FFFFFF;" points="282.9847717,358.3168945 284.883667,358.3168945 284.883667,353.3195496 
		287.2623596,351.1008301 292.4195251,358.3168945 294.8181152,358.3168945 288.5617065,349.8015747 294.5783691,344.0447388 
		292.1197815,344.0447388 284.883667,351.1608276 284.883667,344.0447388 282.9847717,344.0447388 282.9847717,358.3168945 	"/>
	<polygon style="fill:#FFFFFF;" points="316.926239,358.3168945 326.8405457,358.3168945 326.8405457,356.7177429 
		318.8249207,356.7177429 318.8249207,351.7805176 326.2410278,351.7805176 326.2410278,350.1813965 318.8249207,350.1813965 
		318.8249207,345.6438904 326.7805481,345.6438904 326.7805481,344.0447388 316.926239,344.0447388 316.926239,358.3168945 	"/>
	<polygon style="fill:#FFFFFF;" points="352.9822693,358.3168945 354.8811646,358.3168945 354.8811646,345.6438904 
		359.6385193,345.6438904 359.6385193,344.0447388 348.2249146,344.0447388 348.2249146,345.6438904 352.9822693,345.6438904 
		352.9822693,358.3168945 	"/>
	<polygon style="fill:#FFFFFF;" points="381.9031982,358.3168945 383.802124,358.3168945 383.802124,344.0447388 
		381.9031982,344.0447388 381.9031982,358.3168945 	"/>
	<polygon style="fill:#FFFFFF;" points="407.5796814,358.3168945 409.3785095,358.3168945 409.3785095,346.8632202 
		409.4186096,346.8632202 416.8742981,358.3168945 418.9534302,358.3168945 418.9534302,344.0447388 417.1541443,344.0447388 
		417.1541443,355.6184082 417.1142883,355.6184082 409.5986023,344.0447388 407.5796814,344.0447388 407.5796814,358.3168945 	"/>
	<path style="fill:#FFFFFF;" d="M453.8117981,358.3168945h1.1993103v-7.5158081h-6.2564087v1.598999h4.5574036
		c0.1197815,2.5986633-1.6389771,4.6575012-4.5773315,4.6575012c-3.1785889,0-4.897522-2.7185059-4.897522-5.6968079
		c0-3.0583801,1.4393005-6.0568542,4.897522-6.0568542c2.1184998,0,3.8578186,0.9795837,4.2374878,3.1383972h1.8989258
		c-0.5395508-3.3381958-3.01828-4.7374268-6.1364136-4.7374268c-4.5175781,0-6.7964172,3.5981445-6.7964172,7.7558289
		c0,3.7178955,2.5385132,7.1958923,6.7964172,7.1958923c1.678833,0,3.4778748-0.6194458,4.5773315-2.1187439
		L453.8117981,358.3168945L453.8117981,358.3168945z"/>
	<path style="fill:#FFFFFF;" d="M515.7468262,358.3168945h1.1992798v-7.5158081h-6.2566528v1.598999h4.5574341
		c0.1199951,2.5986633-1.6392212,4.6575012-4.5773621,4.6575012c-3.1781006,0-4.8974915-2.7185059-4.8974915-5.6968079
		c0-3.0583801,1.4393005-6.0568542,4.8974915-6.0568542c2.1188049,0,3.8578186,0.9795837,4.2375183,3.1383972h1.8989258
		c-0.5395508-3.3381958-3.0183105-4.7374268-6.1364441-4.7374268c-4.5175781,0-6.7963867,3.5981445-6.7963867,7.7558289
		c0,3.7178955,2.5387268,7.1958923,6.7963867,7.1958923c1.6791077,0,3.4781799-0.6194458,4.5773621-2.1187439
		L515.7468262,358.3168945L515.7468262,358.3168945z"/>
	<path style="fill-rule:evenodd;clip-rule:evenodd;fill:#FFFFFF;" d="M542.2494507,350.6210632v-4.9771729h4.7172852
		c1.7789307,0,2.5387573,1.0393372,2.5387573,2.4386597c0,2.0787964-1.5192261,2.5385132-3.2983398,2.5385132H542.2494507
		L542.2494507,350.6210632z M540.3505859,358.3168945h1.8988647v-6.0966797h4.6373901
		c1.8388672,0,2.1789551,1.1793823,2.3786621,2.5784912c0.2798462,1.3994446-0.0199585,2.9384766,0.5198364,3.5181885h2.1187744
		c-0.7994995-0.9794617-0.7195435-2.5385132-0.8395386-3.9378357c-0.1399536-1.399353-0.4797974-2.6185608-2.138916-2.938385
		v-0.0400696c1.7191162-0.4795227,2.4787598-1.8988953,2.4787598-3.6177979c0-2.2788391-1.6591797-3.7380676-4.3375854-3.7380676
		h-6.7162476V358.3168945L540.3505859,358.3168945z"/>
	<path style="fill-rule:evenodd;clip-rule:evenodd;fill:#FFFFFF;" d="M573.847229,351.1807556
		c0,3.8779907,2.2987061,7.4758606,6.8362427,7.4758606c4.5372314,0,6.8362427-3.5978699,6.8362427-7.4758606
		c0-3.8777161-2.2990112-7.4758606-6.8362427-7.4758606C576.1459351,343.704895,573.847229,347.3030396,573.847229,351.1807556
		L573.847229,351.1807556z M575.7460938,351.1807556c0-2.8783569,1.4589844-5.8768311,4.9373779-5.8768311
		c3.4780884,0,4.9373169,2.9984741,4.9373169,5.8768311c0,2.878479-1.4592285,5.8768311-4.9373169,5.8768311
		C577.2050781,357.0575867,575.7460938,354.0592346,575.7460938,351.1807556L575.7460938,351.1807556z"/>
	<path style="fill:#FFFFFF;" d="M621.8375854,344.0447388h-1.8988647v9.1149597
		c0,2.5186157-1.3195801,3.8978882-3.7181396,3.8978882c-2.5186157,0-3.9576416-1.3792725-3.9576416-3.8978882v-9.1149597
		h-1.8989258v9.1149597c0,3.797821,2.1785278,5.4969177,5.8565674,5.4969177c3.5580444,0,5.6170044-1.8987732,5.6170044-5.4969177
		V344.0447388L621.8375854,344.0447388z"/>
	<path style="fill-rule:evenodd;clip-rule:evenodd;fill:#FFFFFF;" d="M645.4822998,358.3168945h1.8989258v-5.8367615h4.3577271
		c2.8382568,0.02005,4.3773804-1.5791016,4.3773804-4.217804c0-2.6383667-1.5391235-4.2175903-4.3773804-4.2175903h-6.2566528
		V358.3168945L645.4822998,358.3168945z M647.3812256,345.6438904h3.7180786c2.1386719,0,3.1181641,0.9194641,3.1181641,2.6184387
		c0,1.6990967-0.9794922,2.6387024-3.1181641,2.6186829h-3.7180786V345.6438904L647.3812256,345.6438904z"/>
	
		<line style="fill:none;stroke:#FFFFFF;stroke-width:1.0381;" x1="168.0240631" y1="366.0312195" x2="665.880188" y2="366.0312195"/>
</g>
</svg>
