<?xml version="1.0" encoding="utf-8"?>
<!-- Generator: Adobe Illustrator 19.2.1, SVG Export Plug-In . SVG Version: 6.00 Build 0)  -->
<svg version="1.1" id="Ebene_1" xmlns="http://www.w3.org/2000/svg" xmlns:xlink="http://www.w3.org/1999/xlink" x="0px" y="0px"
	 viewBox="0 0 483.3298645 483.329834" style="enable-background:new 0 0 483.3298645 483.329834;" xml:space="preserve">
<g>
	<g>
		<defs>
			<rect id="SVGID_1_" width="483.3298645" height="483.329834"/>
		</defs>
		<clipPath id="SVGID_2_">
			<use xlink:href="#SVGID_1_"  style="overflow:visible;"/>
		</clipPath>
		<path style="clip-path:url(#SVGID_2_);fill:#8CB110;" d="M241.664917,471.246582
			c126.7955627,0,229.5816956-102.7861328,229.5816956-229.5816498S368.4604797,12.083252,241.664917,12.083252
			S12.0832481,114.8693695,12.0832481,241.6649323S114.8693848,471.246582,241.664917,471.246582"/>
	</g>
	<g>
		<defs>
			<rect id="SVGID_3_" width="483.3298645" height="483.329834"/>
		</defs>
		<clipPath id="SVGID_4_">
			<use xlink:href="#SVGID_3_"  style="overflow:visible;"/>
		</clipPath>
		
			<circle style="clip-path:url(#SVGID_4_);fill:none;stroke:#8CB110;stroke-width:4;" cx="241.664917" cy="241.6649323" r="229.5816803"/>
	</g>
	<g>
		<defs>
			<rect id="SVGID_5_" width="483.3298645" height="483.329834"/>
		</defs>
		<clipPath id="SVGID_6_">
			<use xlink:href="#SVGID_5_"  style="overflow:visible;"/>
		</clipPath>
		<path style="clip-path:url(#SVGID_6_);fill:#FFFFFF;" d="M244.1462402,390.6990967
			c0,17.7804565,14.4032288,32.2139282,32.2562256,32.2139282c17.7804871,0,32.2199707-14.4334717,32.2199707-32.2139282
			c0-17.4784546-13.9138489-31.6218872-31.2472839-32.1414185l-8.9899292-39.1980591
			c-5.0447693,1.7399902-10.3190918,3.0026855-15.8109131,3.6430664l8.9899292,39.234314
			C251.2451477,367.6140137,244.1462402,378.2654419,244.1462402,390.6990967 M95.2443848,267.510437
			c-17.8167267,0-32.2199707,14.3971558-32.2199707,32.2138672c0,17.81073,14.403244,32.2562866,32.2199707,32.2562866
			c17.8167572,0,32.2441559-14.4455566,32.2441559-32.2562866c0-0.743103-0.1389771-1.4499512-0.2174835-2.1507568
			l50.1092072-16.7776489c-2.2656097-4.8936768-4.0539398-10.0169678-5.2380829-15.4061279l-49.921936,16.741333
			C116.4686127,273.3345337,106.5241089,267.510437,95.2443848,267.510437 M196.5684509,193.7180328l-21.7498322-20.5596619
			c2.5193481-4.5976868,4.1143494-9.7934875,4.1143494-15.4000854c0-17.8227844-14.4273987-32.2562256-32.2501984-32.2562256
			c-17.8106995,0-32.2562256,14.4334412-32.2562256,32.2562256c0,17.7744446,14.4455261,32.2199707,32.2562256,32.2199707
			c6.2772522,0,12.0953522-1.8608398,17.0373688-4.9843445l21.7136078,20.5294495
			C188.7324677,201.1794281,192.405777,197.2040253,196.5684509,193.7180328 M283.0422058,251.0590668
			c0,21.647171-17.6113281,39.2523956-39.2524109,39.2523956c-21.6411133,0-39.2463989-17.6052246-39.2463989-39.2523956
			c0-21.6410828,17.6052856-39.2463989,39.2463989-39.2463989
			C265.4308777,211.8126678,283.0422058,229.417984,283.0422058,251.0590668 M243.7897949,191.9357452
			c-32.6006165,0-59.1233215,26.5227356-59.1233215,59.1233215c0,32.6066437,26.5227051,59.1293488,59.1233215,59.1293488
			c32.6066284,0,59.129364-26.5227051,59.129364-59.1293488
			C302.9191589,218.4584808,276.3964233,191.9357452,243.7897949,191.9357452 M358.5081177,111.6909027
			c0-17.7804871-14.4394836-32.213913-32.2562256-32.213913s-32.2199707,14.397171-32.2199707,32.213913
			c0,8.8388977,3.5705872,16.8561096,9.3161926,22.6802368l-28.7943726,48.4417419
			c4.9661865,2.2595825,9.6061707,5.0447693,13.9198914,8.3132935l28.8729248-48.580719
			c2.8516235,0.8035583,5.7878723,1.4016724,8.9053345,1.4016724
			C344.068634,143.9471283,358.5081177,129.5076447,358.5081177,111.6909027 M420.3078918,264.0606079
			c0-17.8166962-14.4395142-32.2561798-32.2562561-32.2561798c-13.8413391,0-25.5741882,8.8328247-30.1416321,21.1214905
			l-40.1224365-3.9693604c0,0.2900085,0.0362549,0.5860596,0.0362549,0.8820801
			c0,5.2320557-0.5497742,10.3553314-1.5949707,15.2974091l40.0861511,3.9331055
			c2.4529114,15.4000854,15.6659546,27.2054443,31.7366333,27.2054443
			C405.8683777,296.2745972,420.3078918,281.8411255,420.3078918,264.0606079"/>
	</g>
</g>
</svg>
