<?xml version="1.0" encoding="utf-8"?>
<!-- Generator: Adobe Illustrator 19.2.1, SVG Export Plug-In . SVG Version: 6.00 Build 0)  -->
<svg version="1.1" id="Ebene_1" xmlns="http://www.w3.org/2000/svg" xmlns:xlink="http://www.w3.org/1999/xlink" x="0px" y="0px"
	 viewBox="0 0 483.3298645 483.3298645" style="enable-background:new 0 0 483.3298645 483.3298645;" xml:space="preserve">
<g style="display:none;">
	<defs>
		<rect id="SVGID_1_" y="0" width="483.3298645" height="483.3298645"/>
	</defs>
	<clipPath id="SVGID_2_" style="display:inline;">
		<use xlink:href="#SVGID_1_"  style="overflow:visible;"/>
	</clipPath>
	<path style="display:inline;clip-path:url(#SVGID_2_);fill:#8CB110;" d="M241.6649323,471.2466125
		c126.7955475,0,229.5816803-102.7861328,229.5816803-229.5816803S368.4604797,12.0832462,241.6649323,12.0832462
		S12.0832462,114.8693848,12.0832462,241.6649323S114.8693848,471.2466125,241.6649323,471.2466125"/>
	
		<circle style="display:inline;clip-path:url(#SVGID_2_);fill:none;stroke:#8CB110;stroke-width:4;" cx="241.6649323" cy="241.6649323" r="229.5816803"/>
	<path style="display:inline;clip-path:url(#SVGID_2_);fill:#FFFFFF;" d="M244.1462402,390.6990967
		c0,17.7804871,14.4032288,32.2139282,32.2562256,32.2139282c17.7804871,0,32.2199707-14.4334412,32.2199707-32.2139282
		c0-17.4784241-13.9138489-31.6218567-31.2472839-32.1414185l-8.9899292-39.1980591
		c-5.0447693,1.7399902-10.3190918,3.0026855-15.8109283,3.6430969l8.9899445,39.2342834
		C251.2451324,367.6140442,244.1462402,378.2654419,244.1462402,390.6990967 M95.2443924,267.5104065
		c-17.8167343,0-32.2199821,14.3971863-32.2199821,32.2139282c0,17.8106995,14.4032478,32.2562256,32.2199821,32.2562256
		s32.2441483-14.4455261,32.2441483-32.2562256c0-0.743103-0.1389694-1.4499817-0.2174911-2.1508179l50.1092148-16.7775879
		c-2.2656097-4.8937073-4.0539398-10.0169983-5.2380981-15.4061279l-49.9219284,16.741333
		C116.4686127,273.3345337,106.5241013,267.5104065,95.2443924,267.5104065 M196.5684509,193.7180328l-21.7498322-20.5596466
		c2.5193481-4.5976868,4.1143494-9.7934875,4.1143494-15.4001007c0-17.8227997-14.4274139-32.2562332-32.2501984-32.2562332
		c-17.8106995,0-32.2562332,14.4334335-32.2562332,32.2562332c0,17.7744446,14.4455338,32.219986,32.2562332,32.219986
		c6.2772522,0,12.0953522-1.8608398,17.0373688-4.9843445l21.7136078,20.5294189
		C188.7324677,201.1794281,192.405777,197.2040405,196.5684509,193.7180328 M283.0422058,251.059082
		c0,21.6471252-17.6113281,39.2524109-39.2524109,39.2524109s-39.2463989-17.6052856-39.2463989-39.2524109
		c0-21.641098,17.6053009-39.2463989,39.2463989-39.2463989S283.0422058,229.417984,283.0422058,251.059082 M243.7897949,191.93573
		c-32.6006012,0-59.1233215,26.5227509-59.1233215,59.1233521c0,32.6066284,26.5227203,59.1293335,59.1233215,59.1293335
		c32.6066284,0,59.129364-26.5227051,59.129364-59.1293335C302.9191589,218.4584808,276.3964233,191.93573,243.7897949,191.93573
		 M358.5081177,111.6909103c0-17.7804794-14.4394836-32.2139206-32.2562256-32.2139206
		s-32.2199707,14.3971634-32.2199707,32.2139206c0,8.8388748,3.5705872,16.8561172,9.3161926,22.6802444l-28.7943726,48.4417419
		c4.9661865,2.2595673,9.6061707,5.044754,13.9198914,8.3132629l28.8729248-48.5806885
		c2.8516235,0.8035278,5.7878723,1.4016418,8.9053345,1.4016418
		C344.068634,143.947113,358.5081177,129.5076447,358.5081177,111.6909103 M420.3078918,264.0606384
		c0-17.8167419-14.4395142-32.2562103-32.2562561-32.2562103c-13.8413391,0-25.5741882,8.83284-30.1416626,21.1215057
		l-40.122406-3.9693604c0,0.2899933,0.0362549,0.5860443,0.0362549,0.8820801
		c0,5.2320557-0.5497742,10.3553467-1.5949707,15.2973938l40.0861511,3.9331055
		c2.4529114,15.4000854,15.6659546,27.2054138,31.7366333,27.2054138
		C405.8683777,296.2745667,420.3078918,281.8411255,420.3078918,264.0606384"/>
</g>
<g style="display:none;">
	<g style="display:inline;">
		<defs>
			<rect id="SVGID_3_" width="483.3298645" height="483.3298645"/>
		</defs>
		<clipPath id="SVGID_4_">
			<use xlink:href="#SVGID_3_"  style="overflow:visible;"/>
		</clipPath>
		<path style="clip-path:url(#SVGID_4_);fill:#FDC400;" d="M241.6649323,471.2466125
			c126.7955475,0,229.5816803-102.7861328,229.5816803-229.5816803S368.4604797,12.0832462,241.6649323,12.0832462
			S12.0832462,114.8693848,12.0832462,241.6649323S114.8693848,471.2466125,241.6649323,471.2466125"/>
		
			<circle style="clip-path:url(#SVGID_4_);fill:none;stroke:#FDC400;stroke-width:4;" cx="241.6649323" cy="241.6649323" r="229.5816803"/>
		<path style="clip-path:url(#SVGID_4_);fill:#FFFFFF;" d="M360.5284119,224.8831177h-99.0523987v-39.7357483h99.0523987
			V224.8831177z M274.3567505,165.2825012H258.672699c5.745575-17.8650818,16.1130066-42.357811,33.2349548-59.5341568
			c8.585144-8.6032715,19.296936-13.7386398,28.6493835-13.7386398c3.3108215,0,7.9568176,0.6947708,11.2857361,4.0297546
			c8.0534973,8.0776443,3.5343628,26.7945862-9.6847229,40.043869
			C308.5583801,149.7253418,290.2583008,159.1079559,274.3567505,165.2825012 M261.4760132,234.8155518h79.2358704v129.1336365
			h-79.2358704V234.8155518z M221.8550568,363.9491882h-79.2419434V234.8155365h79.2419434V363.9491882z M221.8550568,224.8831177
			h-99.0524216v-39.7357483h99.0524216V224.8831177z M213.9828033,158.715271
			c-0.5618896-0.151062-1.1237488-0.3020782-1.6977081-0.46521c-21.0791931-5.8724518-37.7661743-14.5301208-48.2483826-25.0425262
			c-4.8997498-4.9118347-7.9749298-11.2253494-8.4461975-17.3153c-0.2174988-2.8335342-0.012085-8.1501465,3.7760162-11.9503403
			c3.1718597-3.1839371,7.3647461-3.8485184,10.3251343-3.8485184c6.5793304,0,13.4546967,3.1114578,18.8619537,8.5307922
			c10.4822235,10.5124054,19.1156769,27.2477036,24.9700165,48.387352
			C213.6807251,157.5854797,213.8317566,158.1473389,213.9828033,158.715271 M360.5284119,244.7479706h19.8044434v-79.4654694
			h-58.3379211c5.6126709-3.9995575,10.9897156-8.4522247,15.9257202-13.3942719
			c10.3372192-10.3674316,17.2548828-23.1273346,19.472168-35.9234924
			c2.4347534-14.0225983-1.1358337-27.0483551-9.7874451-35.7301407
			c-6.9055786-6.9237289-16.2579956-10.5788803-27.0483398-10.5788803c-15.3578186,0-31.5493469,7.3949356-44.3998718,20.2877808
			c-20.5838318,20.632103-32.5764618,49.1183624-39.0289001,69.4484253
			c-4.7789154-20.4267273-14.3005219-48.0067291-32.8181152-66.5726242
			c-9.9324036-9.9626541-22.631897-15.0799103-34.6184845-15.0799103c-9.7994995,0-19.1217346,3.4195709-26.0816803,10.397644
			c-15.4725952,15.5148697-13.3822021,42.7686386,4.670166,60.8753891
			c6.4343262,6.4524384,13.962204,11.8173981,21.8888092,16.2700806H102.992157v79.4654694h19.8104782v139.0721283h237.725769
			V244.7479706z"/>
	</g>
</g>
<g style="display:none;">
	<defs>
		<rect id="SVGID_5_" width="483.3298645" height="483.3298645"/>
	</defs>
	<clipPath id="SVGID_6_" style="display:inline;">
		<use xlink:href="#SVGID_5_"  style="overflow:visible;"/>
	</clipPath>
	<path style="display:inline;clip-path:url(#SVGID_6_);fill:#007A77;" d="M241.6649323,471.2466125
		c126.7955475,0,229.5816803-102.7861328,229.5816803-229.5816803S368.4604797,12.0832462,241.6649323,12.0832462
		S12.0832462,114.8693848,12.0832462,241.6649323S114.8693848,471.2466125,241.6649323,471.2466125"/>
	
		<circle style="display:inline;clip-path:url(#SVGID_6_);fill:none;stroke:#007A77;stroke-width:4;" cx="241.6649323" cy="241.6649323" r="229.5816803"/>
	<path style="display:inline;clip-path:url(#SVGID_6_);fill:#FFFFFF;" d="M257.114563,339.1507568
		c-0.5074768,0.434967-0.9425049,0.8699951-1.4560242,1.2264404l23.1514893,71.0917664
		c0.7975159,2.4589539,4.0720825,3.0389404,5.6791382,1.0150146l16.8138428-21.4115295
		c0.7974854-1.0089417,2.1810303-1.516449,3.4920349-1.0814514l26.2025146,7.5943298
		c2.555603,0.7250061,4.8091431-1.661438,4.0116577-4.1264343l-21.9854736-67.5453491
		c-4.223114,4.2653809-9.9747314,6.7243347-16.3063354,6.7243347c-2.259552,0-4.4405823-0.2839661-6.627655-0.9364624
		l-18.6323853-5.5643311L257.114563,339.1507568z M148.280777,393.6039124
		c-0.7975006,2.4589233,1.5345764,4.8453674,4.0055847,4.1264038l26.2085724-7.6003418
		c1.3110352-0.3564758,2.6945648,0.0785217,3.4920654,1.0874939l16.81987,21.4054565
		c1.594986,2.0239258,4.8755798,1.4500122,5.6730804-1.0089417l23.1515045-71.0917969
		c-0.5135345-0.3624878-1.0210266-0.7914429-1.4560394-1.2264404l-14.3428192-13.0921936l-18.6323547,5.5703735
		c-2.114563,0.6464539-4.3680878,0.9364624-6.627655,0.9364624c-6.2591248,0-12.083252-2.5314636-16.3063507-6.7243347
		L148.280777,393.6039124z M253.108963,146.0604706c0-6.2893219-5.0205688-11.4972076-11.4307404-11.4972076
		c-34.2862091,0-62.2347565,27.7673035-62.2347565,61.8299866c0,6.3678589,5.1655884,11.4246979,11.4972076,11.4246979
		c6.4101562,0,11.5032501-5.1293335,11.5032501-11.4246979c0-21.4779663,17.5448761-38.9080658,39.1618042-38.9080658
		C248.0158844,157.4851837,253.108963,152.3498077,253.108963,146.0604706 M328.5265503,196.3932495
		c0,47.5838165-38.9443054,86.2743835-86.8483276,86.2743835c-47.897995,0-86.8422852-38.690567-86.8422852-86.2743835
		s38.9442902-86.2743988,86.8422852-86.2743988C289.5822449,110.1188507,328.5265503,148.8094025,328.5265503,196.3932495
		 M359.3207092,199.867157c-1.2385254-2.0964203-1.2385254-4.7003784,0-6.8753357l12.0892944-21.187973
		c1.8124695-3.1053925,0.8639221-7.0868378-2.1145935-9.1107941l-20.1669006-13.8836517
		c-2.0360413-1.3714294-3.1295776-3.7578735-2.9845886-6.1443176l1.6735229-24.299408
		c0.2235718-3.618927-2.3320618-6.8028641-5.8966064-7.3043213l-24.2390137-3.836441
		c-2.3984985-0.3624802-4.5130615-2.023941-5.3890991-4.2653961l-9.0986938-22.7044144
		c-1.3110352-3.3289032-5.0205994-5.1353683-8.5186768-4.0539169l-23.5079651,7.0143433
		c-2.3320618,0.724968-4.8816528,0.1449661-6.7001648-1.5164413l-18.1248627-16.4151077
		c-2.6945648-2.4589272-6.7726593-2.4589272-9.4672394,0l-17.9798584,16.4151077
		c-1.8185425,1.6614075-4.3680878,2.2414093-6.6941223,1.5164413l-23.5139923-7.0143433
		c-3.4920502-1.0089493-7.1351471,0.7250137-8.518692,4.0539169l-9.0986786,22.6319351
		c-0.9485321,2.2414322-2.9845581,3.9089279-5.3891144,4.2653961l-24.2450409,3.8364182
		c-3.5585175,0.5739594-6.1080933,3.7578964-5.8905945,7.3043213l1.6735229,24.2933578
		c0.1450195,2.4649963-0.9485168,4.7789307-2.9845581,6.1503906l-20.2394257,13.956131
		c-2.9845581,2.0239563-3.8545609,6.0054016-2.1085434,9.1107941l12.0832443,21.187973
		c1.2385483,2.102478,1.2385483,4.7064209,0,6.8753357l-12.0832443,21.187973
		c-1.8185196,3.1114655-0.8760147,7.0868378,2.1085434,9.1107941l20.1669312,13.8836517
		c2.036026,1.3774719,3.1295624,3.763916,2.9845734,6.1503601l-1.6735382,24.2993927
		c-0.217514,3.6128845,2.3260193,6.7968445,5.8966217,7.3043213l24.2450409,3.8304138
		c2.3985138,0.3624878,4.5070496,2.0239258,5.3830872,4.2653809l9.0986786,22.6379395
		c1.3110352,3.3229065,5.0205841,5.1293335,8.518692,4.0479126l23.5079346-7.0143433
		c2.332077-0.7189636,4.8816528-0.144989,6.7001648,1.516449l18.1248779,16.4211426
		c2.6945648,2.4589233,6.772644,2.4589233,9.4611969,0l18.1309052-16.4211426
		c1.818512-1.661438,4.368103-2.2354126,6.6940918-1.516449l23.5140076,7.0143433
		c3.4920654,1.0149841,7.1351624-0.7250061,8.5187073-4.0479126l9.0986633-22.6379395
		c0.9485474-2.2414551,2.9845886-3.9028931,5.3891296-4.2653809l24.2450562-3.8304138
		c3.5584717-0.5799866,6.1080627-3.763916,5.890564-7.3043213l-1.6735229-24.2993927
		c-0.144989-2.4649963,0.9485474-4.7728882,2.9845581-6.1503601l20.1669312-13.8836517
		c2.9845581-2.0239563,3.8545532-5.9993286,2.1085205-9.1107941L359.3207092,199.867157z"/>
</g>
<g style="display:none;">
	<defs>
		<rect id="SVGID_7_" width="483.3298645" height="483.3298645"/>
	</defs>
	<clipPath id="SVGID_8_" style="display:inline;">
		<use xlink:href="#SVGID_7_"  style="overflow:visible;"/>
	</clipPath>
	<path style="display:inline;clip-path:url(#SVGID_8_);fill:#C50938;" d="M241.6649323,471.2466125
		c126.7955475,0,229.5816803-102.7861328,229.5816803-229.5816803S368.4604797,12.0832462,241.6649323,12.0832462
		S12.0832462,114.8693848,12.0832462,241.6649323S114.8693848,471.2466125,241.6649323,471.2466125"/>
	
		<circle style="display:inline;clip-path:url(#SVGID_8_);fill:none;stroke:#C50938;stroke-width:4;" cx="241.6649323" cy="241.6649323" r="229.5816803"/>
	<path style="display:inline;clip-path:url(#SVGID_8_);fill:#FFFFFF;" d="M391.7756653,201.8832703
		c0-4.525177-3.6491394-8.1984711-8.150116-8.1984711c-4.4949646,0-8.1501465,3.6732941-8.1501465,8.1984711
		c0,4.5372467,3.6551819,8.2105713,8.1501465,8.2105713C388.1265259,210.0938416,391.7756653,206.420517,391.7756653,201.8832703
		 M406.1607971,198.6208038c0,2.2716522-0.8760681,4.3982849-2.4649658,6.0053711l-23.5744324,23.7737732l-80.9698181-81.6343994
		c-1.5889587-1.6070862-2.4589539-3.7337189-2.4589539-6.0114288c0-2.2595673,0.8699951-4.3862,2.4589539-5.9932861
		l17.6354675-17.7744446c1.5829163-1.6010284,3.7035522-2.4831085,5.9449768-2.4831085
		c2.247467,0,4.3560181,0.8820801,5.9509888,2.4831085l75.0128174,75.6350861
		C405.284729,194.2225037,406.1607971,196.3551941,406.1607971,198.6208038 M368.2919006,240.3200684l-36.4974365,36.7934875
		l-92.8295593-93.5907745c-1.3895721-1.4016724-3.2261963-2.2656097-5.1837006-2.4408112l-47.4690247-4.1868439
		l-0.7370911-0.0241699c-3.9391327,0-7.394928,2.7972717-8.1863861,6.7666016l-3.8062286,19.0250854
		c-2.3743439,11.8899078-13.9017639,19.6231995-25.7070923,17.2186127
		c-5.7093353-1.1599731-10.6393127-4.4949646-13.8655396-9.3886566c-3.2262268-4.899765-4.3680878-10.7661896-3.2141266-16.5298767
		l3.8001709-19.0311279c5.6730804-28.3412628,33.1383057-46.7621765,61.2741547-41.040741l0.1752014,0.0362549
		l81.2779388,14.6690369L368.2919006,240.3200684z M200.503952,369.3570557l-12.3309631,12.4276123
		c-2.3562164,2.3864441-6.2047424,2.3804016-8.5670166,0l-4.2895355-4.3257751
		c-2.3562317-2.3804016-2.3562317-6.2591248,0-8.6395569l12.3309479-12.4276123L200.503952,369.3570557z M175.8178864,344.4655762
		l-12.3309479,12.4336548c-2.3562317,2.3804016-6.2047577,2.3804016-8.5670166,0l-4.2895813-4.3318481
		c-1.141861-1.1539307-1.7762299-2.6824646-1.7762299-4.3197632c0-1.6251831,0.6343689-3.1597595,1.7762299-4.3137207
		l12.3249207-12.4276123L175.8178864,344.4655762z M151.1257629,319.5740967l-12.3128204,12.4336548
		c-2.3622894,2.3804016-6.2107849,2.3804016-8.5730743,0l-4.2895508-4.3258057
		c-2.3683014-2.3864441-2.3683014-6.2591248,0-8.6395264l12.3188782-12.4276123L151.1257629,319.5740967z M126.4517746,294.6825867
		l-12.3309555,12.4336548c-2.3622665,2.3804321-6.2047501,2.3804321-8.5670166,0l-4.2895432-4.3257751
		c-2.3562317-2.3804321-2.3562317-6.2591248,0-8.6395264l12.3248901-12.4276123L126.4517746,294.6825867z M415.5253296,180.7013245
		l-75.0128174-75.6350555c-4.7547607-4.7910309-11.0621948-7.4251556-17.7804871-7.4251556
		s-13.0257263,2.6341248-17.7744751,7.4251556l-17.6354675,17.774437c-2.7006226,2.7308121-4.6399841,5.9510117-5.8603821,9.3766098
		l-82.4681549-14.892601h-0.0241699c-37.0774384-7.4251556-73.2909164,16.8802872-80.770462,54.283989l-3.8001709,19.0250549
		c-4.2049637,21.0127716,9.3342972,41.5422058,30.1718597,45.7834167
		c20.8436127,4.2291412,41.2099152-9.4128418,45.408844-30.4255981l2.3260345-11.6361694l36.9928436,3.2624817
		l96.5813751,97.3909607l17.502594,17.647583c3.5464478,3.5826721,3.5464478,9.3947144,0,12.9653015
		c-3.5343628,3.5706177-9.3101501,3.5766602-12.8565674,0l-46.8890381-47.2756653
		c-3.2685242-3.2926941-8.5610046-3.2926941-11.8294983,0c-3.2624817,3.2866211-3.2624817,8.6274109,0,11.920105
		l46.8950806,47.2817383c1.7158203,1.7339478,2.6643372,4.0297546,2.6643372,6.482666s-0.9485168,4.7487183-2.6643372,6.482666
		c-3.5464478,3.5705872-9.3161926,3.5705872-12.8565674,0l-46.8890381-47.2817383
		c-3.2685394-3.2926941-8.5670319-3.2926941-11.8295135,0c-3.2685242,3.2926636-3.2685242,8.6334534,0,11.9261475
		l46.8890533,47.2756958c3.5464172,3.5766602,3.5464172,9.3887024,0,12.9713745
		c-1.7158203,1.7218628-4.0056152,2.6764221-6.4222412,2.6764221c-2.4347839,0-4.7185364-0.9545593-6.4343567-2.6764221
		l-46.8890228-47.2817383c-3.2685242-3.2926941-8.5670319-3.2926941-11.8294983,0
		c-3.2685242,3.2926636-3.2685242,8.6334839,0,11.920105l46.8890228,47.2817688
		c3.5464478,3.5766296,3.5464478,9.3886719,0,12.9653015c-3.5403748,3.5706177-9.3101501,3.5766602-12.8505249,0
		L68.6576157,210.9094543c-3.2685165-3.2926788-8.5670357-3.2926788-11.8294945,0
		c-3.2685204,3.2987213-3.2685204,8.6334839,0,11.926178l45.7532005,46.1338196L89.4347534,282.224762
		c-4.3016434,4.3378906-6.6759872,10.1076355-6.6759872,16.2398987c0,6.1443176,2.3743439,11.9140625,6.6759872,16.2579956
		l4.2895508,4.3197632c3.7639389,3.7941284,8.6093063,6.0960083,13.8353195,6.6155701
		c0.5195694,5.2683105,2.8033218,10.1559753,6.5611954,13.9440918l4.2895508,4.3318176
		c3.8605957,3.8908081,8.7784958,6.0899658,13.8292847,6.5974731c0.5135345,5.2743225,2.7972717,10.1680298,6.573288,13.9621887
		l4.2835083,4.3257751c3.763916,3.7941589,8.609314,6.1020508,13.8292694,6.6156006
		c0.5195923,5.26828,2.8093567,10.1559448,6.5612183,13.9501038l4.295578,4.3258057
		c4.4405975,4.4828796,10.2768097,6.7182922,16.1130066,6.7182922c5.8362122,0,11.6663818-2.2354126,16.1069794-6.7182922
		l13.1465607-13.2492981l31.5010223,31.7608337c4.8695526,4.9118347,11.3582458,7.6184998,18.2517395,7.6184998
		c6.8995361,0,13.3822021-2.706665,18.257782-7.6184998c4.6218567-4.6641541,7.243927-10.7843018,7.5097351-17.3273926
		c6.494751-0.2658081,12.5545044-2.9060059,17.1763611-7.5701294c4.7668152-4.8031006,7.2438965-11.0259705,7.5036621-17.3213501
		c6.2470398-0.2658386,12.4216003-2.7610168,17.1824036-7.5701599c4.7607727-4.7970581,7.2438965-11.0198975,7.4976501-17.3213196
		c6.2530823-0.2658386,12.4276123-2.7610168,17.182373-7.5641174c10.0653381-10.1499329,10.0653381-26.6677246,0-36.8176575
		l-11.5878296-11.6844788l42.4122009-42.7626343l29.4891663-29.7308044
		C425.3247986,206.6621857,425.3247986,190.585434,415.5253296,180.7013245"/>
</g>
<g style="display:none;">
	<defs>
		<rect id="SVGID_9_" y="0" width="483.3298645" height="483.3298645"/>
	</defs>
	<clipPath id="SVGID_10_" style="display:inline;">
		<use xlink:href="#SVGID_9_"  style="overflow:visible;"/>
	</clipPath>
	<path style="display:inline;clip-path:url(#SVGID_10_);fill:#00AEC7;" d="M241.6649323,471.2466125
		c126.7955475,0,229.5816803-102.7861328,229.5816803-229.5816803S368.4604797,12.0832462,241.6649323,12.0832462
		S12.0832462,114.8693848,12.0832462,241.6649323S114.8693848,471.2466125,241.6649323,471.2466125"/>
	
		<circle style="display:inline;clip-path:url(#SVGID_10_);fill:none;stroke:#00AEC7;stroke-width:4;" cx="241.6649323" cy="241.6649323" r="229.5816803"/>
	<path style="display:inline;clip-path:url(#SVGID_10_);fill:#FFFFFF;" d="M389.7221375,258.8449097
		c-0.5014648,4.229126-2.4830933,9.4551086-9.0926208,10.6513672c-3.5524902,0.9908142-5.8905945,3.0328979-7.0626526,5.872467
		c-1.3654175,3.4316406-0.8579102,7.7090759,1.4197693,11.3944702c2.3924866,2.7912598,2.7428894,8.5670471,1.3231201,13.5997009
		c-1.9212341,6.0114136-6.3980713,10.2405701-13.3096924,12.536377c-2.9483337,0.3443604-5.588501,2.3804016-7.0083008,5.431427
		c-1.6795654,3.473938-1.2747803,7.2620239,0.9606323,9.8478394c1.9816284,2.7368469,1.5768738,8.9597168-1.1177063,14.0407104
		c-2.1326904,4.0297852-5.1897583,6.4283142-8.1259766,6.4283142c-0.4591675,0-0.8760376,0-1.2808228-0.1571045l-0.453125-0.0543518
		h-0.5074768c-3.6008301,0-8.3374634,1.5466614-10.6695251,5.0749512c-1.5708313,2.3441467-1.7762451,5.1837158-0.610199,7.8239136
		c1.4197998,3.7880859,1.2626953,8.1078491-0.5074768,11.0501099c-1.3231506,2.0904236-3.3531189,3.3410339-6.2047729,3.6853943
		c-4.9299622,1.2989502-9.9143066,1.2989502-14.6871643,1.2989502c-14.2703247-1.2506104-29.4106445-2.6039429-44.061554-5.1897583
		l-6.9599609-1.5406189c-3.6007996-0.7914429-7.2076569-1.5405884-10.3674316-2.3320618
		c-5.2260132-2.5495605-11.1226501-6.8693237-16.7655029-11.0621948c-1.8729095-1.3895874-3.709549-2.7791443-5.5280914-4.0297546
		c-1.3291473-1.0391846-2.7489319-2.3804321-4.2291412-3.7276917c-3.709549-3.3893738-7.8722229-7.2680969-13.0499115-8.6697388
		c-4.9299469-2.9785156-10.1197052-2.9785156-14.330719-2.9785156c-13.6782379-1.202301-20.0762939-6.029541-23.4293976-17.7804871
		c-3.2564545-11.7328491-3.3591461-25.2298279-3.2020721-36.8720398l0.0483246-2.6401978
		c0.1027222-10.9474182,0.3020935-24.6981201,6.0476837-34.6970215c2.8516388-4.7789307,8.5911713-5.7757874,15.2007141-7.0263977
		c9.0865936-1.437912,16.3123627-4.368103,23.0125275-9.4551544c0.972702-0.3443756,1.9333191-1.0451813,2.6885223-2.3320618
		c2.7489471-1.8487396,4.9843445-4.4828796,7.014328-6.9176636c10.8205414-11.5092773,20.7892303-23.4958649,28.6191864-34.54599
		c1.7701874-2.6401825,3.6007843-5.1716461,5.4374542-7.7212219c8.2770081-11.6482239,16.9104919-23.6891785,20.5777588-38.52742
		c2.5918579-10.9051361,2.3320618-20.36026,1.7702026-31.5614319l-0.0906067-1.6916733
		c-0.4168701-6.8209763-0.5618896-14.1373978,3.3953857-14.6871567c0.2597961-0.0483551,0.5618591-0.0966568,0.9243774-0.0966568
		c6.3497314,0,14.3729858,7.8722153,19.145874,15.1886139c4.9843445,9.2497406,7.5762024,18.9586182,7.3284912,27.7250137
		c-0.2597961,9.1047211-3.3047485,17.714035-6.5068359,26.8791962c-3.7578735,10.8023987-7.7272339,21.9915009-6.8149414,34.1472473
		c1.3291626,16.5661316,14.7355042,30.8545685,33.4464111,35.6334839
		c5.4374695,1.4016571,11.2253723,2.2897949,16.8198853,3.1839447c10.4036865,1.6976776,21.1759033,3.3893585,29.9725037,8.222641
		C384.7015686,245.1062622,390.7915039,251.0210114,389.7221375,258.8449097 M399.6364746,231.2165375
		c-10.8205566-10.0532379-25.7554626-12.5000916-38.926178-14.6448822c-2.0783386-0.3443756-4.1203918-0.688736-6.1503906-1.0391541
		c-1.4681091-0.3987579-3.3531189-0.7914429-5.2803955-1.2385406c-17.5871582-4.0418396-29.9845581-7.9145355-30.0389404-22.009613
		c-0.0483398-9.2497406,3.1114502-17.8650818,6.4161987-26.9758759c3.7579041-10.3976135,7.6607971-21.2544098,7.0505676-33.7907867
		c-1.2082825-22.4023438-10.9172058-41.9167633-26.0212402-52.1754684
		c-5.9812012-4.7245407-13.9198914-7.5157547-21.4356995-7.5157547c-11.2313538,0-19.6171265,5.9751587-23.0306702,16.37883
		c-2.3743286,7.0143433-1.9756165,13.8353043-1.5708008,21.0490036c0.1087646,1.7460327,0.2597656,3.5887299,0.3141785,5.4737167
		c0.3987427,9.9565887-0.8216858,18.1732025-3.7579041,25.9366913
		c-5.6489258,15.4846802-16.9286499,29.9724731-26.1239929,40.8171997l-5.0326691,6.2289124
		c-7.014328,8.6516266-14.2703094,17.6657257-22.5594025,24.8914948c-4.0176849,3.1295471-8.3918152,4.2774811-13.9199066,5.4253693
		c-1.5829163,0.0906219-97.2701263,1.0452118-97.2701263,1.0452118v137.7248383c0,0,75.0611267-0.0483398,79.2781677-0.2900085
		c3.7095642-0.2537537,7.2620239-0.4470825,10.5124359-0.4470825h1.5345612
		c3.09935,0.6404114,6.1926727,0.9908142,9.4430542,1.3352051c2.8999939,0.308136,5.896637,0.598114,9.0443115,1.2022705
		c3.5645599,0.6464539,7.2197418,4.0237427,10.7299347,7.3164062c2.0299683,1.8970642,4.0599518,3.7276917,6.035553,5.0810242
		c2.0420837,1.3895569,3.9693604,2.8274841,5.9993439,4.229126c6.1503754,4.3741455,12.5001221,8.9114075,19.671524,12.0953369
		c8.8932648,3.7337036,18.7048798,4.966217,28.2506561,6.1684875c4.6218262,0.598114,9.195343,1.1479187,13.569458,1.9877014
		c2.8999939,0.3020935,5.3347473,0.598114,7.8722534,0.9002075c7.4251404,0.7914429,15.1523743,1.6976929,22.8131409,1.6976929
		c5.2441406,0,9.811615-0.4591675,14.0769958-1.2506104c15.1946716-4.2291565,24.8612671-16.3184509,24.897522-30.15979
		c7.7332764-3.0449829,14.638855-9.3645325,19.006958-17.4723816c3.8666382-7.225769,5.1897583-14.9832153,3.7579041-21.8041992
		c14.6871338-9.4128723,22.2633362-27.0785522,18.2033691-42.2128296
		c6.5068665-4.3378906,10.9776611-11.6482544,12.5001221-20.5596619
		C411.6290588,252.2716064,407.7684631,239.1794128,399.6364746,231.2165375"/>
</g>
<g style="display:none;">
	<defs>
		<rect id="SVGID_11_" x="0.8794326" width="482.4504395" height="483.3298645"/>
	</defs>
	<clipPath id="SVGID_12_" style="display:inline;">
		<use xlink:href="#SVGID_11_"  style="overflow:visible;"/>
	</clipPath>
	<path style="display:inline;clip-path:url(#SVGID_12_);fill:#0084B6;" d="M242.1046448,471.2466125
		c126.5648499,0,229.1639404-102.7861328,229.1639404-229.5816803S368.6694946,12.0832462,242.1046448,12.0832462
		S12.9406929,114.8693848,12.9406929,241.6649323S115.5398102,471.2466125,242.1046448,471.2466125"/>
	
		<ellipse style="display:inline;clip-path:url(#SVGID_12_);fill:none;stroke:#0084B6;stroke-width:4;" cx="242.1046448" cy="241.6649323" rx="229.1639557" ry="229.5816803"/>
	<path style="display:inline;clip-path:url(#SVGID_12_);fill:#FFFFFF;" d="M332.1202393,241.4450378
		c0.693512-3.9451752-0.1869507-7.9266052-2.4846191-11.2072144c-2.291626-3.2866364-5.723053-5.4736938-9.6670837-6.17453
		l-56.0788269-9.9082642l9.8902283-56.1750031c1.4292297-8.1501465-4.0164185-15.9498901-12.1456909-17.3877869
		c-8.1413727-1.4318848-15.9208679,4.0297546-17.3561859,12.1738739l-9.884201,56.1810455l-56.0788116-9.9082794
		c-8.1473846-1.4378967-15.9148407,4.0237274-17.3501129,12.1678314
		c-1.4353027,8.1441193,4.0164032,15.9499054,12.1517181,17.3878021l56.0727844,9.9022217l-9.884201,56.1810608
		c-1.4352875,8.1501465,4.0164032,15.9438477,12.1456909,17.3817444c0.8804626,0.157074,1.7609406,0.2356262,2.6353912,0.2356262
		c3.0454712,0,6.0125427-0.9304199,8.5574493-2.71875c3.2746277-2.3018494,5.4637604-5.7395325,6.1572723-9.6847229
		l9.8902435-56.1810455l56.0788269,9.9082642C322.8752747,255.0568237,330.684967,249.5951843,332.1202393,241.4450378
		 M400.6402588,256.8632812c-11.2893372,64.1559753-86.0570984,104.8704834-166.511734,90.654541
		c-12.1276093-2.1387329-43.0164795-10.9957581-53.2323608-14.9167786
		c-2.4846191-0.9606018-5.2345886-0.9243469-7.7312775,0.0181274
		c-21.7464447,8.5791321-40.0192566,12.3611755-58.8287888,12.1134644
		c10.0349655-10.6453552,18.737175-22.1546326,26.1849899-34.4312134c2.5268402-4.0116577,1.9720306-9.3282776-1.254364-12.7478333
		c-25.4552917-27.5437622-36.3224869-60.2531128-30.6898804-92.2797394
		c11.2893372-64.1257935,85.918396-104.6771698,166.5057068-90.4430923
		C355.5371704,129.0466766,411.9295959,192.7374725,400.6402588,256.8632812 M278.7974243,93.7213058
		c-92.1902618-16.2821732-177.9578857,32.0508118-191.2915955,107.8308945
		c-6.2899551,35.7362061,4.7762604,73.3513641,30.6175079,104.2482147
		c-9.6309128,14.330719-21.3966751,27.5316772-35.0379562,38.926178c-3.1419601,2.7368469-4.5289993,7.0566101-3.4434814,11.0803223
		c1.0794601,4.0237427,4.3963242,6.9176636,8.5031738,7.6426697c30.2255249,5.3407898,56.983429,2.5374756,89.1025543-9.5095215
		c13.677475,4.7547607,40.947998,12.4276123,53.1841431,14.5844727
		c92.1600647,16.2821655,177.9518127-32.1595764,191.2855225-107.9335938
		C435.0570679,184.8108521,370.9635315,110.0035019,278.7974243,93.7213058"/>
</g>
<g style="display:none;">
	<defs>
		<rect id="SVGID_13_" x="0.8794326" width="482.4504395" height="483.3298645"/>
	</defs>
	<clipPath id="SVGID_14_" style="display:inline;">
		<use xlink:href="#SVGID_13_"  style="overflow:visible;"/>
	</clipPath>
	<path style="display:inline;clip-path:url(#SVGID_14_);fill:#7E406A;" d="M242.1046448,471.2466125
		c126.5648499,0,229.1639404-102.7861328,229.1639404-229.5816803S368.6694946,12.0832462,242.1046448,12.0832462
		S12.9406929,114.8693848,12.9406929,241.6649323S115.5398102,471.2466125,242.1046448,471.2466125"/>
	
		<ellipse style="display:inline;clip-path:url(#SVGID_14_);fill:none;stroke:#7E406A;stroke-width:4;" cx="242.1046448" cy="241.6649323" rx="229.1639557" ry="229.5816803"/>
	<path style="display:inline;clip-path:url(#SVGID_14_);fill:#FFFFFF;" d="M211.9973145,422.5366211
		c0,5.2078857,4.3119049,9.4430542,9.6128387,9.4430542h41.0746002c5.2949219,0,9.6068115-4.2351685,9.6068115-9.4430542
		s-4.3118896-9.4430542-9.6068115-9.4430542h-41.0746002C216.3092194,413.0935669,211.9973145,417.3287354,211.9973145,422.5366211
		 M199.4294891,393.7301636c0,5.2078857,4.3179321,9.4430847,9.618866,9.4430847h66.1198273
		c5.3009033,0,9.6188354-4.235199,9.6188354-9.4430847c0-5.2018433-4.3179321-9.4370117-9.6188354-9.4370117h-66.1198273
		C203.7474213,384.2931519,199.4294891,388.5283203,199.4294891,393.7301636 M124.5652542,189.2574921H96.0584641
		c-5.2948837,0-9.6067886,4.229126-9.6067886,9.4369965c0,5.207901,4.3119049,9.4430847,9.6067886,9.4430847h28.5067902
		c5.2948837,0,9.6067886-4.2351837,9.6067886-9.4430847C134.1720428,193.486618,129.8601379,189.2574921,124.5652542,189.2574921
		 M165.7604828,123.5548172c1.8514099-1.8185196,2.864563-4.2291183,2.8464508-6.7907639
		c-0.0180817-2.5254135-1.0312195-4.8756104-2.8464508-6.6216202l-20.1603851-19.8406982
		c-3.787262-3.733696-9.8721619-3.7276611-13.568924,0.0120773c-1.8393402,1.8547745-2.8344116,4.2955856-2.804245,6.8753738
		c0.0301514,2.4951782,1.03125,4.8151779,2.8162994,6.5249634l20.1724701,19.8527679
		c1.881546,1.8124847,4.3420563,2.7187347,6.7965088,2.7187347
		C161.4666748,126.2856522,163.9090729,125.3794022,165.7604828,123.5548172 M251.684906,82.8584442V54.7951241
		c0-5.2259903-4.2998505-9.4793091-9.5766449-9.4793091c-5.2828369,0-9.5826721,4.2533188-9.5826721,9.4793091v28.0633202
		c0,5.316658,4.2093811,9.4793091,9.5826721,9.4793091C247.3850555,92.3377533,251.684906,88.0844803,251.684906,82.8584442
		 M319.0108337,212.040451c-0.0844116,17.3938293-5.8617554,33.6578827-16.7168884,47.0279694
		c-23.44104,28.9273071-36.2259827,61.9991455-37.0220337,95.7295227h-46.3333282
		c-0.7839966-34.4251709-13.5146484-67.9078369-35.9184418-94.418457
		c-11.5124512-13.6601257-17.8144684-30.9089661-17.7360687-48.5686188
		c0.1567993-39.9834747,33.2528839-73.8286438,73.7666473-75.4477844
		c21.2338562-0.749176,41.2193604,6.7303467,56.3683167,21.1033783
		C310.6282654,171.8515778,319.0108337,191.2331085,319.0108337,212.040451 M338.2485657,212.0464935
		c0-26.0696259-10.4872742-50.3267365-29.5259705-68.3005524c-18.9663086-17.967804-44.0115356-27.3564682-70.4859924-26.3837738
		c-50.7236328,1.9876862-92.1118622,44.3153076-92.2746735,94.3641052
		c-0.0783997,22.2089996,7.8338013,43.8078156,22.2711029,60.8210297
		c20.3051453,24.0456543,31.4859314,54.4048157,31.5040283,85.2774963
		c-0.0542908,0.3443604-1.2121582,8.4884949,2.695694,13.0317993c1.6825409,1.951416,4.0043182,2.9483032,6.9111023,2.9483032
		h65.5227814c3.0032654,0,5.3853455-1.0210266,7.0799561-3.0268555c3.8656616-4.5614319,2.5811157-12.6330261,2.5449219-12.7538757
		c0-30.4135437,11.3617249-60.5249634,32.8609314-87.0718384
		C331.0238647,253.9753571,338.2485657,233.6090546,338.2485657,212.0464935 M352.1612244,103.6476822
		c1.8272705-1.7520752,2.8404541-4.1083069,2.8525085-6.6276627c0.0180664-2.5616226-0.9890442-4.9782791-2.8404541-6.7968292
		c-3.7872314-3.7276611-9.8781738-3.7216187-13.5628967,0l-20.1603699,19.8406982
		c-1.8453674,1.8185196-2.852478,4.2291412-2.8404236,6.7907867c0.0180664,2.5253906,1.03125,4.8816223,2.852478,6.6336975
		c1.9117126,1.8305969,4.3842773,2.7489243,6.8387146,2.7489243c2.4544983,0,4.8908691-0.9243622,6.7121277-2.7610016
		L352.1612244,103.6476822z M397.7588196,198.6944885c0-5.2078705-4.3119202-9.4369965-9.606781-9.4369965h-28.5068054
		c-5.3009033,0-9.606781,4.229126-9.606781,9.4369965c0,5.207901,4.3058777,9.4430847,9.606781,9.4430847h28.5068054
		C393.4468994,208.1375732,397.7588196,203.9023895,397.7588196,198.6944885"/>
</g>
<g style="display:none;">
	<defs>
		<rect id="SVGID_15_" width="483.3298645" height="483.3298645"/>
	</defs>
	<clipPath id="SVGID_16_" style="display:inline;">
		<use xlink:href="#SVGID_15_"  style="overflow:visible;"/>
	</clipPath>
	<path style="display:inline;clip-path:url(#SVGID_16_);fill:#EC7404;" d="M241.6649323,471.2466125
		c126.7955475,0,229.5816803-102.7861328,229.5816803-229.5816803S368.4604797,12.0832462,241.6649323,12.0832462
		S12.0832462,114.8693848,12.0832462,241.6649323S114.8693848,471.2466125,241.6649323,471.2466125"/>
	
		<circle style="display:inline;clip-path:url(#SVGID_16_);fill:none;stroke:#EC7404;stroke-width:4;" cx="241.6649323" cy="241.6649323" r="229.5816803"/>
	<path style="display:inline;clip-path:url(#SVGID_16_);fill:#FFFFFF;" d="M272.3636169,213.0077057l13.4788513-13.5332336
		c18.6625977,21.2121429,28.9091797,48.3450775,28.9091797,76.6440277c0,63.9203796-51.7767029,115.9206238-115.4252167,115.9206238
		c-63.6424561,0-115.4191666-52.0002441-115.4191666-115.9206238s51.7767105-115.9266663,115.4191666-115.9266663
		c28.1781464,0,55.1962891,10.2949524,76.3238373,29.0360413l-13.4848938,13.5392914
		c-17.4965515-15.1403198-39.7357635-23.4596252-62.8389435-23.4596252c-53.1542053,0-96.4001236,43.4332275-96.4001236,96.8109589
		s43.2459183,96.8049316,96.4001236,96.8049316s96.4001617-43.4271851,96.4001617-96.8049316
		C295.726593,252.9186707,287.443512,230.5827942,272.3636169,213.0077057 M262.1411743,223.2784729
		c12.3732605,14.8080292,19.15802,33.4887085,19.15802,52.8400269c0,45.396759-36.7693481,82.3352356-81.9727631,82.3352356
		s-81.9787827-36.9324341-81.9787827-82.3352356c0-45.396759,36.7753677-82.3352203,81.9787827-82.3352203
		c19.2667389,0,37.862854,6.8209686,52.6165009,19.2546539l-13.5151062,13.5694733
		c-11.0984802-8.8509827-24.9096222-13.7084503-39.1013947-13.7084503c-34.7091217,0-62.9537048,28.359375-62.9537048,63.2195435
		c0,34.854126,28.2445831,63.213501,62.9537048,63.213501c34.7151642,0,62.9537201-28.359375,62.9537201-63.213501
		c0-14.2521973-4.833313-28.1237488-13.654068-39.2705536L262.1411743,223.2784729z M238.3432465,247.1730804
		c6.1503448,8.3616028,9.5155487,18.5538177,9.5155487,28.9454193c0,26.8791809-21.7740021,48.7438354-48.5323639,48.7438354
		s-48.5263062-21.8646545-48.5263062-48.7438354s21.7679596-48.7438202,48.5263062-48.7438202
		c10.3553467,0,20.5052795,3.3772888,28.8185425,9.5638885l-13.6903076,13.7447052
		c-4.5674591-2.7489471-9.7693024-4.1928864-15.1282349-4.1928864c-16.2700958,0-29.5072784,13.2915649-29.5072784,29.6281128
		s13.2371826,29.6281128,29.5072784,29.6281128s29.5133209-13.2915649,29.5133209-29.6281128
		c0-5.3830872-1.4378967-10.6030579-4.1868286-15.1946716L238.3432465,247.1730804z M204.4316101,281.2297058l9.3584747-9.4007568
		c0.4108124,1.3775024,0.6162262,2.8153992,0.6162262,4.2895508c0,8.3555603-6.7605743,15.1524048-15.0798798,15.1524048
		c-8.3132629,0-15.0798798-6.7968445-15.0798798-15.1524048s6.7666168-15.1584167,15.0798798-15.1584167
		c1.4681244,0,2.8999786,0.2114563,4.2774811,0.6222839l-9.3766022,9.4188843
		c-2.8093414,2.8214417-2.8093414,7.4130859-0.0060272,10.2224426
		C196.9399872,283.9665833,201.7309875,283.9605408,204.4316101,281.2297058 M343.3768616,160.3972626
		c-4.9541321,4.978302-11.5395203,7.7151489-18.5477905,7.7151489h-7.7634888l35.7543335-35.905365h18.6323547
		L343.3768616,160.3972626z M306.8793945,157.8658295v-7.787674c0-7.0445251,2.7308044-13.6600952,7.6849365-18.6383972
		l28.057312-28.1781387v18.710907L306.8793945,157.8658295z M393.9512939,130.0803833
		c2.0722351-2.0722656,2.6824341-5.1655884,1.5647583-7.8782578c-1.1177063-2.7187347-3.7337036-4.4708176-6.6639099-4.4708176
		h-31.8031006V85.7771606c0-2.9301453-1.7460327-5.5522461-4.4526672-6.6820068
		c-2.700592-1.1237717-5.7939148-0.5074997-7.8662109,1.5708313l-40.3701172,40.5392609
		c-7.678894,7.7151642-11.90802,17.9677887-11.90802,28.8729095v22.2754669l-6.5974731,6.6276703
		c-23.8643799-21.4598541-54.5135651-33.25914-86.5281219-33.25914c-71.5992584,0-129.8465576,58.4949799-129.8465576,130.396347
		s58.2473068,130.3903198,129.8465576,130.3903198s129.8526154-58.4889526,129.8526154-130.3903198
		c0-32.1474609-11.750946-62.9295502-33.1262207-86.9026947l6.5974426-6.6336975h22.1788025
		c10.8628235,0,21.0731812-4.2472687,28.7581177-11.9563751L393.9512939,130.0803833z"/>
</g>
<g style="display:none;">
	<defs>
		<rect id="SVGID_17_" x="0.4822695" width="483.3298645" height="483.3298645"/>
	</defs>
	<clipPath id="SVGID_18_" style="display:inline;">
		<use xlink:href="#SVGID_17_"  style="overflow:visible;"/>
	</clipPath>
	<path style="display:inline;clip-path:url(#SVGID_18_);fill:#8CB110;" d="M242.1472015,471.2466125
		c126.7955475,0,229.5816803-102.7861328,229.5816803-229.5816803S368.942749,12.0832462,242.1472015,12.0832462
		S12.5655155,114.8693848,12.5655155,241.6649323S115.3516541,471.2466125,242.1472015,471.2466125"/>
	
		<circle style="display:inline;clip-path:url(#SVGID_18_);fill:none;stroke:#8CB110;stroke-width:4;" cx="242.1472015" cy="241.6649323" r="229.5816803"/>
	<path style="display:inline;clip-path:url(#SVGID_18_);fill:#FFFFFF;" d="M237.1906433,321.0814514
		c10.4943085-26.8127136,45.1430054-82.9696045,89.3556213-123.7082672
		c0.7854004-0.7189484,1.0935364-1.9151764,0.6222534-2.8999786c0-0.0543671-6.796814-10.4157562-7.690979-10.4157562
		c-0.0180969,0-0.0362549,0.0060425-0.0483093,0.012085c-47.5898743,29.1568756-81.8760681,66.0409851-95.8020172,82.4138031
		L187.8728943,238.47435c-0.0181274-0.0181122-0.0422974-0.0241699-0.0725098-0.0241699
		c-1.649353,0-20.4810944,16.7594757-19.9736023,17.2730103l65.0984802,66.2342987
		c0.4651947,0.5316772,1.1418762,0.7854309,1.8729095,0.7854309l0.4651947-0.0543823
		C236.1454468,322.5314331,236.8764954,321.9212341,237.1906433,321.0814514 M339.9526062,288.3479614
		c0,53.7221069-92.3220215,94.8232727-96.2672119,96.539093c-0.4651947,0.2477112-1.0391541,0.302063-1.5587311,0.302063
		c-0.5195923,0-1.051239-0.0543518-1.5708313-0.302063c-3.8424683-1.7158203-96.2128448-42.8169861-96.2128448-96.539093
		V157.0574341c0-2.1266479,1.7158203-3.8424683,3.8424835-3.8424683c76.8917236,0,90.2437286-29.3562469,90.4007874-29.6220779
		c0.5739594-1.4499969,1.969574-2.3804016,3.5404053-2.3804016h0.0543671c1.5527039,0,2.9483032,0.9847717,3.5222626,2.4347763
		c0.1631317,0.2658234,13.1949005,29.5677032,90.4068451,29.5677032c2.1266479,0,3.8424683,1.7158203,3.8424683,3.8424683
		V288.3479614z M367.0734863,298.1112061V130.3474274c0-2.6401901-2.1810303-4.8816452-4.9360352-4.8816452
		c-98.6113586,0-115.2862549-37.4520111-115.4493713-37.7722244c-0.7189636-1.8608093-2.489151-3.0570374-4.5070496-3.1114349
		h-0.0543671c-1.9816742,0-3.8062286,1.2506256-4.5735016,3.0087357
		c-0.1087646,0.4229126-17.1461334,37.8749237-115.401062,37.8749237c-2.7489243,0-4.9299545,2.2414551-4.9299545,4.8816452
		v167.7637787c0,68.644928,117.9324875,121.1164246,122.9228439,123.2974548
		c0.6766815,0.302063,1.2989502,0.4108276,2.0360413,0.4108276c0.6102142,0,1.3412476-0.1087646,1.969574-0.4108276
		C249.1893158,419.2276306,367.0734863,366.756134,367.0734863,298.1112061"/>
</g>
<g style="display:none;">
	<defs>
		<rect id="SVGID_19_" width="483.3298645" height="483.3298645"/>
	</defs>
	<clipPath id="SVGID_20_" style="display:inline;">
		<use xlink:href="#SVGID_19_"  style="overflow:visible;"/>
	</clipPath>
	<path style="display:inline;clip-path:url(#SVGID_20_);fill:#C50938;" d="M241.6649323,471.2466125
		c126.7955475,0,229.5816803-102.7861328,229.5816803-229.5816803S368.4604797,12.0832462,241.6649323,12.0832462
		S12.0832462,114.8693848,12.0832462,241.6649323S114.8693848,471.2466125,241.6649323,471.2466125"/>
	
		<circle style="display:inline;clip-path:url(#SVGID_20_);fill:none;stroke:#C50938;stroke-width:4;" cx="241.6649323" cy="241.6649323" r="229.5816803"/>
	<path style="display:inline;clip-path:url(#SVGID_20_);fill:#FFFFFF;" d="M363.2284241,262.533905
		c0,26.2025452-21.6109009,47.5294495-48.1638184,47.5294495h-0.4168701c-26.5469055,0-48.1578064-21.3269043-48.1578064-47.5294495
		v-43.1855164h96.6780701v43.1855164H363.2284241z M387.5157471,262.533905v-55.1660309
		c0-6.5853729-5.419342-11.9865875-12.1436768-11.9865875h-11.5455322v-61.1593628
		c0-6.63974-5.419342-11.9865875-12.1497192-11.9865875c-6.7243042,0-12.1436462,5.3468475-12.1436462,11.9865875v61.1593628
		h-49.2875671v-61.1593628c0-6.63974-5.419342-11.9865875-12.1436462-11.9865875
		c-6.7304077,0-12.1436768,5.3468475-12.1436768,11.9865875v61.1593628h-11.55159
		c-6.7303619,0-12.1436462,5.346817-12.1436462,11.9865875v55.1660309c0,35.307251,26.0695953,64.7420349,60.2470551,70.4996948
		c-2.2655945,24.2088013-22.9823303,43.2398987-48.1034088,43.2398987c-26.6737671,0-48.3390198-21.3812866-48.3390198-47.7046509
		V165.6504364c0-29.3743591-24.7042084-53.2871094-55.1298065-53.2871094
		c-30.4195786,0-55.1237793,23.9127502-55.1237793,53.2871094v162.682785c0,6.63974,5.4193573,11.9865723,12.1436768,11.9865723
		s12.1436539-5.3468323,12.1436539-11.9865723v-162.682785c0-16.1552887,13.8111496-29.2595673,30.7760391-29.2595673
		c16.9709015,0,30.8424835,13.1646729,30.8424835,29.2595673v162.9184113c0,39.5424194,32.5583038,71.6778259,72.6263428,71.6778259
		c38.5153503,0,70.1251221-29.730835,72.5055237-67.1526489
		C361.2588501,327.5115662,387.5157471,298.0223999,387.5157471,262.533905"/>
</g>
<g style="display:none;">
	<defs>
		<rect id="SVGID_21_" x="0.4822695" width="483.3298645" height="483.3298645"/>
	</defs>
	<clipPath id="SVGID_22_" style="display:inline;">
		<use xlink:href="#SVGID_21_"  style="overflow:visible;"/>
	</clipPath>
	<path style="display:inline;clip-path:url(#SVGID_22_);fill:#7E406A;" d="M242.1472015,471.2466125
		c126.7955475,0,229.5816803-102.7861328,229.5816803-229.5816803S368.942749,12.0832462,242.1472015,12.0832462
		S12.5655155,114.8693848,12.5655155,241.6649323S115.3516541,471.2466125,242.1472015,471.2466125"/>
	
		<circle style="display:inline;clip-path:url(#SVGID_22_);fill:none;stroke:#7E406A;stroke-width:4;" cx="242.1472015" cy="241.6649323" r="229.5816803"/>
	<path style="display:inline;clip-path:url(#SVGID_22_);fill:#FFFFFF;" d="M180.2277985,283.2445984
		c-2.2293549,0-4.3982849-0.44104-6.5370178-1.0814514v71.0978088c0,4.1566467,2.6160126,7.8662109,6.5068207,9.2436829
		c1.0874939,0.4169006,2.2051849,0.5739746,3.3228912,0.5739746c2.8697662,0,5.6791229-1.2445679,7.558075-3.5827026
		l62.4099426-76.2513123h-25.338562l-34.8359985,42.5753174v-42.5753174H180.2277985z M132.7285614,217.73526l15.0255127,5.6368561
		l-3.0631104-22.1002655l-6.7605743-2.5616455c-1.0874939-0.3866577-2.271637-0.6102142-3.4134979-0.6102142H49.5475044
		c-5.3891411,0-9.7934837,4.4164429-9.7934837,9.8237c0,5.4314117,4.4043427,9.8115692,9.7934837,9.8115692H132.7285614z
		 M173.6847229,165.3544006h163.3594666l-10.5849609-19.6413116h-22.0881653l-16.3365173-26.2327423h-35.9174652
		l-10.6272278-19.6352768H219.443985l-17.1702881,32.7516556H186.770874L173.6847229,165.3544006z M354.0211182,184.4761505
		c5.0447693-5.1172638,3.2866516-6.0053711-3.8907776-6.0053711H167.18396c-7.2076721,0-12.2524109,3.3530731-11.2313843,10.4882355
		l2.4830933,17.4300995l3.1597595,22.1969147l3.7337341,26.1300201c0.7068634,4.9601593,4.1808014,10.4217987,8.6213989,13.3036652
		c1.9393616,1.3110352,4.084137,2.1447754,6.2772369,2.1447754h79.5138092c1.5949707,0,3.3833008-0.3201904,5.1655884-0.8337402
		c2.4891357-0.7008362,5.0810242-1.8185425,7.5278625-3.165802c3.7337341-2.0481262,7.1834717-4.5735168,9.5397034-6.9720459
		l5.872467-6.0718384L354.0211182,184.4761505z M374.4660034,316.8299866c0,8.9536743-7.2378845,16.2096558-16.1734619,16.2096558
		c-8.8026428,0-15.9498596-7.0626526-16.143219-15.8592529l-0.0241394-0.3504028
		c0-7.3526611,4.9057922-13.5271912,11.6059265-15.4846802c1.4681396-0.44104,2.9725037-0.7310486,4.5614319-0.7310486
		C367.2281189,300.6142578,374.4660034,307.8702393,374.4660034,316.8299866 M405.9307556,316.8299866
		c0-26.3898315-21.3088074-47.7529907-47.6382141-47.7529907c-12.2463684,0-23.381073,4.6701965-31.833313,12.3128357
		l-28.4318542-20.7892456l-6.7303772,7.0022583c-2.1085205,2.114563-4.8514099,4.4103699-7.9145203,6.5914001l31.525177,23.0246277
		c-2.7187195,5.9872437-4.2472534,12.6088562-4.2472534,19.6111145c0,26.389801,21.3088074,47.7529907,47.6321411,47.7529907
		C384.6219482,364.5829773,405.9307556,343.2197876,405.9307556,316.8299866"/>
</g>
<g style="display:none;">
	<defs>
		<rect id="SVGID_23_" width="483.8121338" height="483.3298645"/>
	</defs>
	<clipPath id="SVGID_24_" style="display:inline;">
		<use xlink:href="#SVGID_23_"  style="overflow:visible;"/>
	</clipPath>
	<path style="display:inline;clip-path:url(#SVGID_24_);fill:#FDC400;" d="M241.9060669,471.2466125
		c126.9220581,0,229.8107605-102.7861328,229.8107605-229.5816803S368.828125,12.0832462,241.9060669,12.0832462
		S12.0953035,114.8693848,12.0953035,241.6649323S114.9840012,471.2466125,241.9060669,471.2466125"/>
	
		<ellipse style="display:inline;clip-path:url(#SVGID_24_);fill:none;stroke:#FDC400;stroke-width:4;" cx="241.9060669" cy="241.6649323" rx="229.8107605" ry="229.5816803"/>
	<path style="display:inline;clip-path:url(#SVGID_24_);fill:#FFFFFF;" d="M387.2546692,236.3930054
		c0,10.9716034-7.8196106,19.8286133-17.4716492,19.8286133c-3.0419617,0-8.2671509,0.2477112-13.9942627,0.2477112
		c-12.403717,0-27.1478882-1.1781158-27.1478882-8.6636963c0-10.9595032,31.4961548-31.2714386,41.1421509-31.2714386
		C379.4350586,216.5341949,387.2546692,225.427475,387.2546692,236.3930054 M349.7350464,188.4768982H134.0818481
		l37.5256805-39.8868103c4.033783-3.7035065,11.0671997-6.4645386,14.5627594-6.4645386h111.4703064
		c3.5076294,0,10.5350037,2.7610321,14.5687866,6.4645386L349.7350464,188.4768982z M155.1760712,247.8056335
		c0,7.4855804-14.7502441,8.6636963-27.1539612,8.6636963c-5.721077,0-10.9462357-0.2477112-13.9942627-0.2477112
		c-9.6520615,0-17.4656219-8.8570099-17.4656219-19.8286133c0-10.9655304,7.8135605-19.8588104,17.4656219-19.8588104
		S155.1760712,236.8461304,155.1760712,247.8056335 M108.0043945,280.5754089h33.6491241l22.4488678,28.2566528h-15.1674957
		h-6.6524048l-19.7455826,0.0362549c-5.4489441-1.8668518-9.3315506-4.0418396-12.0408859-6.4041138
		c-1.3909531-1.1660461-2.4553604-2.3804016-3.2778244-3.631012c-0.8466644-1.2083435-1.457489-2.4468689-1.8264008-3.6612244
		C102.9304123,287.5655518,108.0043945,280.5754089,108.0043945,280.5754089 M169.3336182,241.9633942h145.1134033
		c0,18.3061066-8.8961182,33.1443329-19.8665466,33.1443329H189.2304077
		C178.2599487,275.1077271,169.3336182,260.2695007,169.3336182,241.9633942 M175.1998291,288.8040771h133.4111938
		c0,11.0682678-8.1945496,20.0642395-18.2820435,20.0642395H193.493988
		C183.4004669,308.8683167,175.1998291,299.872345,175.1998291,288.8040771 M319.6782227,308.8683167l22.4549255-28.2929077
		h33.6793823c0,0,5.0679321,6.9901428,2.6125793,14.5965576c-0.374939,1.2143555-1.0039062,2.4528809-1.8263855,3.6612244
		c-0.8164368,1.2506104-1.8929138,2.4649658-3.277832,3.6672668c-2.7153931,2.3260193-6.5979919,4.5372314-12.0469055,6.4041138
		l-19.745575-0.0362549H319.6782227z M400.118042,287.632019v-44.4905243c0-14.9771729-7.7531128-35.597229-19.6064758-46.7379913
		c-0.2237854-0.2718811-0.4112549-0.519577-0.6592102-0.7975006l-11.0792847-11.7267914
		c9.1803284-2.2837219,19.0863953-10.7601166,19.0863953-19.4117279c0-10.1318054-12.772644-13.7024078-23.6826172-13.7024078
		c-11.3877258,0-12.7061157,8.5851593-12.8694153,14.6448975l-28.5993347-30.2745667
		c-5.7997131-6.2953949-16.8427124-11.2797089-25.0675049-11.2797089H186.1702881
		c-8.2248077,0-19.2617798,4.984314-25.0675201,11.2797089l-28.5933075,30.2745667
		c-0.1632843-6.0597382-1.4877014-14.6448975-12.8693848-14.6448975c-10.9402161,0-23.70681,3.5706024-23.70681,13.7024078
		c0,8.6516113,9.8939667,17.128006,19.104538,19.4117279l-11.097435,11.7267914
		c-0.2540054,0.2779236-0.4112473,0.5256195-0.6350021,0.7975006
		c-11.8534164,11.1407623-19.6125336,31.7608185-19.6125336,46.7379913v44.4905243
		c0,10.7903442,3.8765335,20.5838013,10.1539917,27.8820801v17.2609253c0,10.1076355,7.692627,18.3061218,17.157196,18.3061218
		H131.77771c9.4645691,0,17.1571808-8.1984863,17.1571808-18.3061218v-4.4285278h185.9410858v4.4285278
		c0,10.1076355,7.6925964,18.3061218,17.157196,18.3061218h20.7434387c9.494812,0,17.187439-8.1984863,17.187439-18.3061218
		v-17.2609253C396.2414551,308.2158203,400.118042,298.4223633,400.118042,287.632019"/>
</g>
<g style="display:none;">
	<defs>
		<rect id="SVGID_25_" x="0.4822695" width="482.8475952" height="482.8475952"/>
	</defs>
	<clipPath id="SVGID_26_" style="display:inline;">
		<use xlink:href="#SVGID_25_"  style="overflow:visible;"/>
	</clipPath>
	<path style="display:inline;clip-path:url(#SVGID_26_);fill:#2D7F2A;" d="M241.9060669,470.7763977
		c126.6690369,0,229.3526001-102.6835632,229.3526001-229.3526001S368.5751038,12.0711899,241.9060669,12.0711899
		S12.5534592,114.7547684,12.5534592,241.4237976S115.2370377,470.7763977,241.9060669,470.7763977"/>
	
		<circle style="display:inline;clip-path:url(#SVGID_26_);fill:none;stroke:#2D7F2A;stroke-width:4;" cx="241.9060669" cy="241.4237976" r="229.3526001"/>
	<path style="display:inline;clip-path:url(#SVGID_26_);fill:#FFFFFF;" d="M184.6644897,106.3471756
		c1.3097229-3.8869095,1.3821411-8.0394211,0-12.1919022c-0.6880646-2.0520859-1.9434662-4.2309341-3.9412384-5.8605728
		c-1.7443085-1.5450897-4.2249298-2.3719711-6.4400024-2.3719711c-0.3259125,0-0.6457977,0.0180969-0.9536133,0.0543365
		c-5.1121521,0.6156158-8.081665,3.8205032-11.2684631,5.9993515c-3.09021,2.1788559-6.3494415,4.6232834-9.6690063,6.0537186
		c-3.3799438,1.4304352-6.687439,2.4564743-9.6629944,2.667717c-0.0724335,0-0.1508942,0-0.2233124,0
		c-2.8669128,0-5.1544037-0.9355087-7.3815308-2.667717c-4.8405457-3.5368729-8.6309052-10.0130539-12.7170029-16.5496063
		l-0.7544556,0.1388321c-0.4828415,7.900589,1.4485474,16.271965,8.3593063,22.6213989
		c2.7401581,2.4202805,6.7176056,3.826561,10.5019379,3.826561c1.0863953,0,2.1547089-0.1146622,3.1747131-0.3560944
		c4.6353455-0.8932571,8.2265167-3.4704666,11.1235962-6.2649536c2.9031372-2.8729324,5.1845856-5.7338028,8.5765839-7.4297943
		c2.3900909-1.3398972,5.2992554-1.9796906,7.7436676-1.9796906c0.7906647,0,1.5390778,0.0724335,2.1969604,0.2051926
		c2.4927063,0.4164581,4.0861053,1.4968338,5.9450531,4.3577194c1.804657,2.667717,3.0419464,6.1381912,4.6353455,9.7474747
		H184.6644897z M160.4738159,209.4894562l37.1068268-12.9403229V113.638176h-37.1068268V209.4894562z M287.0583496,106.3471756
		c1.3760986-2.7220535,1.5149231-5.7156982,0.6880493-8.8602448c-0.4949036-1.5632324-1.3821411-3.2109222-2.9031372-4.4965363
		c-1.2795105-1.2070999-3.1988525-1.8287888-4.882782-1.8287888c-0.3138428,0-0.6216736,0.0241699-0.9173889,0.0663986
		c-3.8748474,0.6096268-5.8002014,3.1928253-8.0273438,4.7620926c-2.1426697,1.7080765-4.4784241,3.2109451-6.8986816,4.0800781
		c-2.3538818,0.6820145-4.7077637,1.2372818-6.4943237,1.2372818c-1.8046265-0.0724335-2.9694977-0.6759796-4.3516541-1.7080765
		c-3.0359039-1.9736404-6.0114441-6.1925278-9.4758911-10.5502243l-0.7604675,0.1207352
		c-1.0984802,5.6673965,0,11.7875137,5.1242065,16.6884155c1.9796753,1.7503052,4.943161,2.8065491,7.7557373,2.8065491
		c0.9174194,0,1.8167419-0.1086502,2.6677551-0.3440399c3.5307922-0.6820221,6.0114441-2.7220612,7.954895-4.9009094
		c1.9313965-2.1124496,3.5248108-4.2188644,5.8062439-5.317337c1.279541-0.712204,2.8427734-0.9838181,4.2128601-0.9838181
		c0.9898071,0,1.8770447,0.1448669,2.4866638,0.3681793c1.3096924,0.4707718,1.925354,0.6820145,3.3074951,2.4564743
		c1.3097229,1.6296158,2.4263,3.8748627,3.9412537,6.4037704H287.0583496z M262.1192627,209.4894562l37.0887451-12.9403229
		V113.638176h-37.0887451V209.4894562z M115.1585693,276.9251709H381.35849v-38.8873444h-62.8728027l-7.2547913-36.4550018
		l-92.5679169,36.4550018l-11.0571899-36.4550018l-92.4472198,36.4550018V276.9251709z M139.832077,304.6526794h28.5302582
		v45.0315857H139.832077V304.6526794z M192.1848297,304.6526794h28.5483704v45.0315857h-28.5483704V304.6526794z
		 M242.6242981,304.6526794h28.5966492v45.0315857h-28.5966492V304.6526794z M115.1585693,380.2062683H381.35849v-89.3087158
		H115.1585693V380.2062683z"/>
</g>
<g style="display:none;">
	<defs>
		<rect id="SVGID_27_" width="483.3298645" height="483.3298645"/>
	</defs>
	<clipPath id="SVGID_28_" style="display:inline;">
		<use xlink:href="#SVGID_27_"  style="overflow:visible;"/>
	</clipPath>
	<path style="display:inline;clip-path:url(#SVGID_28_);fill:#00AEC7;" d="M241.6649323,471.2466125
		c126.7955475,0,229.5816803-102.7861328,229.5816803-229.5816803S368.4604797,12.0832462,241.6649323,12.0832462
		S12.0832462,114.8693848,12.0832462,241.6649323S114.8693848,471.2466125,241.6649323,471.2466125"/>
	
		<circle style="display:inline;clip-path:url(#SVGID_28_);fill:none;stroke:#00AEC7;stroke-width:4;" cx="241.6649323" cy="241.6649323" r="229.5816803"/>
	<path style="display:inline;clip-path:url(#SVGID_28_);fill:#FFFFFF;" d="M371.8685303,180.9067535l-7.3405762,20.7650604
		h-51.9821472v-20.7650604H371.8685303z M292.16745,282.4060059h-46.9676056v-20.0038147H292.16745V282.4060059z
		 M292.16745,243.9631653h-46.9676056v-23.8462982H292.16745V243.9631653z M292.16745,201.6778412h-46.9676056v-20.7710876
		H292.16745V201.6778412z M224.8214722,282.4060059h-23.5925598l-7.6426239-20.0038147h31.2351837V282.4060059z
		 M224.8214722,243.9631653h-38.3159637l-9.1228638-23.8462982h47.4388275V243.9631653z M224.8214722,201.671814h-54.5135651
		l-7.9447479-20.7650604h62.458313V201.671814z M312.5458069,220.1168671h45.4451294l-8.4220276,23.8462982h-37.0231018V220.1168671
		z M312.5458069,262.4021912h30.4920959l-7.08078,20.0038147h-23.4113159V262.4021912z M185.490509,357.7450256
		c0-6.784729,6.108078-12.3007202,13.5815582-12.3007202c7.4916229,0,13.5996857,5.5159912,13.5996857,12.3007202
		c0,6.790802-6.1080627,12.3007507-13.5996857,12.3007507C191.598587,370.0457764,185.490509,364.5358276,185.490509,357.7450256
		 M297.5625916,357.7450256c0-6.784729,6.0778809-12.3007202,13.575531-12.3007202
		c7.4916077,0,13.5755615,5.5159912,13.5755615,12.3007202c0,6.790802-6.0839539,12.3007507-13.5755615,12.3007507
		C303.6404724,370.0457764,297.5625916,364.5358276,297.5625916,357.7450256 M394.0715027,166.2497559
		c-1.9212341-2.3864136-4.97229-3.8001709-8.2407837-3.8001709H156.6296692c-0.4349976,0-0.8820648,0.0302124-1.3110352,0.0725098
		l-9.437027-24.6256561c-0.9787292-2.5374908-3.1295471-4.5674744-5.8845367-5.5522766L92.4434662,115.43367
		c-1.2204056-0.4349899-2.4831009-0.6404114-3.7216415-0.6404114c-4.0660172,0-7.9024353,2.2112427-9.4732742,5.8482819
		c-2.0541534,4.7305984,0.5135574,10.0955658,5.7516251,11.9563751l43.173439,15.3578033l52.8460846,137.9786072
		c-2.3199768,0.7370605-4.3137207,2.3562317-5.2078705,4.6278687l-15.2732239,38.4428406
		c-0.9425049,2.3562317-0.5618896,4.966217,1.0270691,7.0263977c1.594986,2.0420837,4.1989136,3.2564697,6.947876,3.2564697
		h7.8601379c-4.8755798,4.9118347-7.8601379,11.3703308-7.8601379,18.4571228
		c0,15.2732239,13.7144775,27.6766968,30.5585175,27.6766968c16.8621674,0,30.5766602-12.4034729,30.5766602-27.6766968
		c0-7.086792-2.9906006-13.5452881-7.8601685-18.4571228h66.6330719
		c-4.8574524,4.9118347-7.8420105,11.3703308-7.8420105,18.4571228c0,15.2732239,13.6963501,27.6766968,30.5585022,27.6766968
		c16.8440552,0,30.5585327-12.4034729,30.5585327-27.6766968c0-7.086792-2.9845581-13.5452881-7.848053-18.4571228h9.5336609
		c4.6943359,0,8.4884949-3.4376831,8.4884949-7.684967c0-4.2351685-3.7941589-7.690979-8.4884949-7.690979H180.602829
		l9.4490967-23.8039856c1.2264404,0.4651794,2.555603,0.7370605,3.9331055,0.7370605h149.3972321
		c4.4466248,0,8.3616333-2.5797729,9.7028809-6.3920288l42.4484253-119.9624634
		C396.5243835,171.6872253,395.9745789,168.6241302,394.0715027,166.2497559"/>
</g>
<g style="display:none;">
	<defs>
		<rect id="SVGID_29_" width="483.8121338" height="483.8121338"/>
	</defs>
	<clipPath id="SVGID_30_" style="display:inline;">
		<use xlink:href="#SVGID_29_"  style="overflow:visible;"/>
	</clipPath>
	<path style="display:inline;clip-path:url(#SVGID_30_);fill:#007A77;" d="M241.9060669,471.7168274
		c126.9220581,0,229.8107605-102.8887024,229.8107605-229.8107605S368.828125,12.0953035,241.9060669,12.0953035
		S12.0953035,114.9840012,12.0953035,241.9060669S114.9840012,471.7168274,241.9060669,471.7168274"/>
	
		<circle style="display:inline;clip-path:url(#SVGID_30_);fill:none;stroke:#007A77;stroke-width:4;" cx="241.9060669" cy="241.9060669" r="229.8107605"/>
	<path style="display:inline;clip-path:url(#SVGID_30_);fill:#FFFFFF;" d="M285.6426697,211.957489
		c3.120575-1.0039062,5.660614-3.1689758,7.1543579-6.0960236c1.5119324-2.9633636,1.7780151-6.3379364,0.743866-9.5250549
		L283.0663452,164.81604l48.4296265-15.9597473l39.460907,118.4795227l-120.3603668,39.6665649l-39.4427795-118.4069824
		l48.4296112-16.0202179l10.4866333,31.5445557c1.6993713,5.0618896,6.4165649,8.4667206,11.7324219,8.4667206
		C283.1933594,212.5864563,284.4815063,212.3747864,285.6426697,211.957489 M230.9960938,326.4637146
		c1.6933441,5.0679321,6.4165344,8.4727783,11.7263947,8.4727783c1.3788605,0,2.6972504-0.2237854,3.8583984-0.6350098
		l143.8010406-47.4135742c3.0843201-0.9857788,5.7029419-3.2536316,7.1906738-6.210968l0.0060425-0.0060425
		c1.4816895-2.9633484,1.7356873-6.2955933,0.7135925-9.4101257l-47.1716309-141.8416443
		c-0.9978943-3.060112-3.2717896-5.6726913-6.2412109-7.1483154c-2.8907471-1.4393387-6.2895203-1.735672-9.4282532-0.7075806
		L191.63797,169.0433502c-3.120575,1.009964-5.6605988,3.1750336-7.1604156,6.1020813
		c-1.5119171,2.9633636-1.7779999,6.3379364-0.7378082,9.5190125L230.9960938,326.4637146z"/>
	<path style="display:inline;clip-path:url(#SVGID_30_);fill:#FFFFFF;" d="M235.2034607,379.7767944
		c0.3568115,10.0209656-7.5716553,18.5058289-17.6772766,18.9230957l-0.7741089,0.018158
		c-9.9060516,0-17.9857025-7.6986694-18.3908997-17.5140076c-0.181427-4.9227905,1.5481873-9.5855103,4.8804626-13.135498
		c3.3322449-3.5983582,7.8679962-5.6787415,12.6758575-5.8480835h0.901123
		C226.7065125,362.220459,234.7801208,369.9312134,235.2034607,379.7767944 M414.5102844,315.2362671
		c-2.0622559-6.3016663-9.1803589-9.9302368-15.6694946-7.855896l-146.691803,48.3570251
		c-8.0494385-11.51474-21.0821075-18.3183289-35.330368-18.3183289h-1.6691589h-0.0121002l-58.3537903-174.8618011
		c-0.9978485-3.0601196-3.2717896-5.6666565-6.2351227-7.1483307l-60.0834274-30.0568314
		c-5.9811172-2.9391556-13.6616364-0.3809967-16.588707,5.509407c-1.4816742,2.993576-1.7114944,6.3681793-0.6410446,9.506897
		c1.0522842,3.096405,3.2475815,5.5880585,6.1625595,7.0153046l55.5537109,27.7647552l56.720932,170.3502502
		c-2.4371948,1.7417297-4.6687775,3.7011719-6.6524048,5.8480835c-7.8014832,8.418335-11.8534088,19.3766785-11.4119263,30.8551025
		c0.9676208,23.1201782,19.914917,41.2268372,43.1378937,41.2268372h1.7840729
		c11.4965668-0.4717102,22.1343842-5.3763733,29.947937-13.8249207
		c7.7288971-8.3397217,11.7687531-19.1468811,11.4240265-30.3531494l146.7402039-48.3509827
		C413.0890808,328.7285767,416.6148682,321.7072449,414.5102844,315.2362671"/>
</g>
<g style="display:none;">
	<defs>
		<rect id="SVGID_31_" x="0.4822695" width="482.8365479" height="482.8365479"/>
	</defs>
	<clipPath id="SVGID_32_" style="display:inline;">
		<use xlink:href="#SVGID_31_"  style="overflow:visible;"/>
	</clipPath>
	<path style="display:inline;clip-path:url(#SVGID_32_);fill:#EC7404;" d="M241.9005432,470.765625
		c126.6661377,0,229.3473511-102.6812134,229.3473511-229.3473511S368.5666809,12.0709133,241.9005432,12.0709133
		S12.5531836,114.7521439,12.5531836,241.4182739S115.2344131,470.765625,241.9005432,470.765625"/>
	
		<circle style="display:inline;clip-path:url(#SVGID_32_);fill:none;stroke:#EC7404;stroke-width:4;" cx="241.9005432" cy="241.4182739" r="229.3473663"/>
	<path style="display:inline;clip-path:url(#SVGID_32_);fill:#FFFFFF;" d="M161.5903625,304.4767151
		c-1.0018921,3.723877-3.3617401,6.8502502-6.64505,8.7996826c-2.2693329,1.3459167-4.743866,1.9856873-7.1821899,1.9856873
		c-4.8947601,0-9.6386261-2.5771484-12.2278442-7.1882324c-1.8709717-3.3315735-2.359848-7.2123718-1.3579559-10.9422913
		c0.9958496-3.7299194,3.3617401-6.8502502,6.6510773-8.7996826c2.2632904-1.3459167,4.7378235-1.9856567,7.1761475-1.9856567
		c4.8947601,0,9.6325989,2.5771179,12.2278442,7.1942444C162.103363,296.8720398,162.5862122,300.7528381,161.5903625,304.4767151
		 M179.6907043,309.3292236c2.3357239-8.71521,1.219162-17.792511-3.1505127-25.5601501
		c-6.0052948-10.6827393-16.9837952-16.6457825-28.3183746-16.6457825c-5.6491852,0-11.3889008,1.4786987-16.6397552,4.5929871
		c-7.6650238,4.5446777-13.1753845,11.8475647-15.511116,20.5688171
		c-2.3296967,8.7091675-1.2131271,17.7925415,3.1505051,25.5601501
		c6.0052719,10.6827698,16.9837646,16.6397705,28.3244019,16.6397705c5.6492004,0,11.3828583-1.4786987,16.633728-4.5929871
		C171.8446045,325.3412781,177.3549652,318.0444336,179.6907043,309.3292236 M373.3564148,174.9316864
		c0.633728-2.3779755,0.3923035-4.9852905-0.8811646-7.2727356c-1.7020264-3.0660095-4.8223267-4.7740479-8.0513-4.7740479
		c-1.6114502,0-3.2410278,0.4224854-4.743866,1.3097076l-102.7778015,60.93396
		c-4.5145111,2.6797333-6.1078796,8.5643311-3.5548706,13.1512604c1.7080383,3.0660095,4.8283691,4.7740479,8.057312,4.7740479
		c1.6054688,0,3.2410583-0.4224854,4.737854-1.3096924l102.777771-60.9339752
		C371.1836548,179.4643097,372.7166748,177.3156891,373.3564148,174.9316864 M393.4906921,158.1048279l-6.276886,26.3628693
		l-2.8426819,1.7502899c-2.1124268,1.2976227-3.6454163,3.3798676-4.2911987,5.7940369l-0.0724182,0.2776337l-4.9852905,20.9369812
		l-16.1750183-3.8385315c-0.6940918-0.1689911-1.400238-0.2474518-2.1003418-0.2474518
		c-1.7503052,0-3.4884949,0.500946-5.003418,1.4605865c-2.1304932,1.3579559-3.6635132,3.4945221-4.2549744,5.9992371
		l-3.7781982,15.8913574l-16.1690063-3.8446045c-0.7001038-0.1689911-1.40625-0.2474518-2.1123962-0.2474518
		c-1.7502747,0-3.4824524,0.500946-4.9973755,1.4605865c-2.1304932,1.3579865-3.6635132,3.4884949-4.2549744,6.0052795
		l-3.7842407,15.8853149l-21.2327271-5.045639c-0.8027344-0.187088-1.5450745-0.2957306-2.29953-0.2957306
		c-3.3074341,0-6.8321228,2.052063-16.3198547,8.1478577c-5.3232727,3.4221039-10.3749695,6.8200836-10.5862122,6.9649506
		c-2.1063538,1.4183044-3.57901,3.6152344-4.1040955,6.1440735c-0.5250854,2.5107422-0.0482788,5.1180725,1.3217773,7.2485657
		l1.0079041,1.5632019c0.8268738,1.3760681,0.7182312,3.1565552,0.0603638,4.5929871
		c-1.9554749,4.2972412-4.6231689,3.3798523-5.7578278,3.6514282c-4.0377197,0.9656982-7.0252838,4.5145569-7.3391113,8.7514343
		c-0.386261,5.0878906-1.2493439,10.1697388-2.5771484,15.1188049
		c-5.5345154,20.6533203-18.5952301,37.9630127-36.7861023,48.7484131
		c-12.4994202,7.411499-26.1516266,10.9301758-39.5986328,10.9301758c-26.9724426,0-53.0999527-14.1772766-67.3858795-39.5986023
		c-10.3628769-18.432312-13.0184708-39.9607849-7.4839554-60.6141052
		c5.5345078-20.6593628,18.6012802-37.9690552,36.7921524-48.754425
		c12.3123016-7.3029022,25.9886627-10.9724426,39.6650085-10.9724426c12.1252289,0,24.250473,2.8849335,35.4281311,8.6910553
		c1.3278046,0.6880188,2.7702637,1.0260315,4.2127533,1.0260315c1.6476746,0,3.3013763-0.4466248,4.7800751-1.3278046
		c0.9777374-0.5854492,2.0822296-0.887207,3.2108612-0.887207c0.5009308,0,1.0079193,0.0603333,1.5028229,0.1810455
		c1.6838989,0.3923035,3.084137,1.4002228,3.9592743,2.8185577c1.5088654,2.438324,4.0135651,4.037735,6.8260803,4.3515778
		l2.432312,0.2716064c0.3258972,0.0361938,0.6578522,0.054306,0.9898071,0.054306
		c1.6597595,0,3.2953644-0.4466248,4.7559509-1.3036499l129.2432404-76.4933777l21.6914368,5.1482391
		C392.1448059,151.6589661,394.2511597,154.9120636,393.4906921,158.1048279 M393.2855225,132.1221771l-25.3066711-6.0052719
		c-0.6940918-0.1689911-1.4062805-0.2474594-2.1124268-0.2474594c-1.6476746,0-3.2832947,0.4406052-4.737854,1.3036575
		l-127.3541565,75.3647537c-2.9513245-2.5288544-6.4881134-4.3394928-10.3870239-5.2689362
		c-1.9011536-0.4526672-3.8325043-0.6759796-5.7457428-0.6759796c-2.6495667,0-5.2810364,0.4285126-7.8038483,1.2734833
		c-12.6925659-5.8604431-26.2542267-8.7755585-39.8159027-8.7755585c-16.9475555,0-33.8951416,4.5507355-49.1588058,13.5978851
		c-22.5725937,13.3806-38.7838364,34.8728638-45.6521912,60.5175171c-6.874382,25.6386108-3.5790176,52.3636169,9.282547,75.2380066
		c17.6959534,31.486969,50.0641098,49.0561829,83.476387,49.0561829c16.651825,0,33.5692139-4.3696594,49.0501556-13.5495911
		c22.5726166-13.3745728,38.7838593-34.8668518,45.6521912-60.5115051
		c0.9898071-3.6755676,1.7684021-7.4236145,2.3357239-11.1957703c0.7303162-0.3440247,1.418335-0.6759644,2.0460205-0.9898071
		l0.6880493-0.3923035c5.5284729-3.3919373,9.5058289-8.7393494,11.1897278-15.0403748
		c1.1346741-4.2368774,1.1407166-8.6668701,0.0845032-12.8374023c4.2670593-2.7944336,8.3289185-5.365509,10.7732849-6.8019409
		l22.1863403,5.2749939c1.1346741,0.2715759,2.2633057,0.3983154,3.3798523,0.3983154
		c6.4881287,0,12.3606262-4.3817139,14.1471252-11.0569458l0.1025696-0.4104004l2.577179-10.8336639l11.1052246,2.6435394
		c1.1346741,0.2655487,2.2693176,0.3983459,3.3858643,0.3983459c6.4881287,0,12.3545837-4.3877869,14.1411133-11.0509338
		l0.1025696-0.4164429l2.5831909-10.8336334l11.1052551,2.6374664c1.1286316,0.2716064,2.2572632,0.3983612,3.3677673,0.3983612
		c6.6209106,0,12.5839233-4.5869446,14.2617798-11.4673615l5.0697632-21.3051758l2.8427124-1.7442322
		c2.1063538-1.3036804,3.6454163-3.3858948,4.2972717-5.8061218l0.0663452-0.2655487l7.2244873-30.328186
		C414.9527893,148.9007568,406.6781616,135.3089142,393.2855225,132.1221771"/>
</g>
<g style="display:none;">
	<defs>
		<rect id="SVGID_33_" x="0.4822695" width="482.8365479" height="482.8365479"/>
	</defs>
	<clipPath id="SVGID_34_" style="display:inline;">
		<use xlink:href="#SVGID_33_"  style="overflow:visible;"/>
	</clipPath>
	<path style="display:inline;clip-path:url(#SVGID_34_);fill:#8D1522;" d="M241.9005432,470.765625
		c126.6661377,0,229.3473511-102.6812134,229.3473511-229.3473511S368.5666809,12.0709133,241.9005432,12.0709133
		S12.5531836,114.7521439,12.5531836,241.4182739S115.2344131,470.765625,241.9005432,470.765625"/>
	
		<circle style="display:inline;clip-path:url(#SVGID_34_);fill:none;stroke:#8D1522;stroke-width:4;" cx="241.9005432" cy="241.4182739" r="229.3473663"/>
	<path style="display:inline;clip-path:url(#SVGID_34_);fill:#FFFFFF;" d="M290.9730225,192.7996521
		c0,27.443222-21.1240845,32.8630524-42.2542267,32.8630524h-55.8943634v-65.72612h57.5963745
		C274.960968,159.9365845,290.9730225,166.7144165,290.9730225,192.7996521 M346.8674011,185.0078735
		c0-31.5111084-17.7200928-67.7660904-84.1765442-67.7660904h-93.0425873c-19.7661133,0-32.7121735,7.7917557-32.7121735,32.531105
		v188.0346375c0,16.6035461,10.9000397,27.787262,27.9441833,27.787262c17.0380859,0,27.9441528-11.1837158,27.9441528-27.787262
		v-71.4839478h55.2123566c30.666153,0,38.5122223,17.273468,38.5122223,59.9682922
		c0,9.8257446,2.3840332,39.3029175,33.0501709,39.3029175c12.9521179,0,26.2421875-8.8117676,26.2421875-21.6854248
		c0-11.5216675-7.4960632-22.0233459-7.4960632-50.1485901c0-24.7333069-5.11203-45.3986969-33.7381897-49.4605713v-0.6759644
		C331.1872559,237.5223846,346.8674011,211.4311218,346.8674011,185.0078735"/>
</g>
<g style="display:none;">
	<defs>
		<rect id="SVGID_35_" x="0.4822695" width="482.8365479" height="482.8365479"/>
	</defs>
	<clipPath id="SVGID_36_" style="display:inline;">
		<use xlink:href="#SVGID_35_"  style="overflow:visible;"/>
	</clipPath>
	<path style="display:inline;clip-path:url(#SVGID_36_);fill:#0084B6;" d="M241.9005432,470.765625
		c126.6661377,0,229.3473511-102.6812134,229.3473511-229.3473511S368.5666809,12.0709133,241.9005432,12.0709133
		S12.5531836,114.7521439,12.5531836,241.4182739S115.2344131,470.765625,241.9005432,470.765625"/>
	
		<circle style="display:inline;clip-path:url(#SVGID_36_);fill:none;stroke:#0084B6;stroke-width:4;" cx="241.9005432" cy="241.4182739" r="229.3473663"/>
	<path style="display:inline;clip-path:url(#SVGID_36_);fill:#FFFFFF;" d="M289.5758057,311.9136047v-74.7732697
		c0-2.6374817-1.418335-5.0697632-3.711792-6.3734436l-108.1855621-61.501297l24.0814514-15.1610718l104.3651276,59.322525
		l-9.1376953,5.7578125c-3.4281311,2.1546478-4.4601746,6.6873016-2.2994995,10.1154175
		c1.3941956,2.2210541,3.7781982,3.4281464,6.2165222,3.4281464c1.3338318,0,2.6918335-0.3621216,3.8988953-1.1226044
		l8.2685852-5.2085876v70.723465L289.5758057,311.9136047z M327.6897278,212.2440796
		c-0.0060425-0.0543213-0.012085-0.120697-0.0181274-0.1810608c-0.0422363-0.2957306-0.0965576-0.5914764-0.1810608-0.8811798
		c0-0.0060272,0-0.0120697,0-0.0120697c-0.0784607-0.2716064-0.1750183-0.5431824-0.2776184-0.8087311
		c-0.0301819-0.078476-0.0663757-0.1508942-0.0965576-0.2233276c-0.0905457-0.1931305-0.1810608-0.3802338-0.2836914-0.5673218
		c-0.0482788-0.0845032-0.0905151-0.1629639-0.1387939-0.2414246c-0.0241699-0.0482788-0.0482788-0.0905304-0.0724487-0.132782
		c-0.1086426-0.1750183-0.2293396-0.331955-0.3500366-0.4949036c-0.0241394-0.0301971-0.0422363-0.0603485-0.0603638-0.0905304
		c-0.1871033-0.2414246-0.386261-0.4586945-0.5914917-0.6699371c-0.0422363-0.0422516-0.0844727-0.0724335-0.120697-0.1146851
		c-0.1810608-0.1750183-0.3681641-0.3379822-0.5673218-0.4949036c-0.0482788-0.0301666-0.0965881-0.0724182-0.1509094-0.1146698
		c-0.2595215-0.1871033-0.5250549-0.3681641-0.8087158-0.5250854l-108.1192017-61.4590454l62.2497253-39.2063446
		l104.3711548,59.3285522l-43.9562378,27.6725616c-3.4281616,2.1607056-4.4602356,6.6993561-2.29953,10.1275024
		c2.1607056,3.4281158,6.6873169,4.4541626,10.1154175,2.293457l54.3312073-34.2089691
		c2.184845-1.3700562,3.4884644-3.7902527,3.4281616-6.3734283c-0.0603943-2.5771637-1.4666443-4.9370117-3.711853-6.2165222
		L281.5365601,91.1003952c-2.3477783-1.3398743-5.244812-1.2734756-7.5322266,0.1689911l-76.3002625,48.0362015
		c-0.0120544,0.0120544-0.0301514,0.0241547-0.0482788,0.0301819l-38.1199341,24.0090485
		c-0.0180969,0.0120697-0.0362091,0.0241241-0.0543213,0.0362091l-76.348526,48.0724182
		c-2.1787949,1.3760681-3.4824524,3.7962952-3.4221115,6.3794708c0.0543365,2.5771332,1.4605865,4.9370117,3.7118149,6.2104797
		l118.8441772,67.5548706c1.1225891,0.63974,2.3779755,0.9596252,3.6273193,0.9596252
		c1.3579712,0,2.7159576-0.3802185,3.9049377-1.1286316l54.3311615-34.2149963
		c3.4281616-2.1546478,4.4602356-6.6872711,2.29953-10.1154175c-2.1546631-3.4281464-6.6933289-4.4601898-10.12146-2.2995148
		l-50.6073151,31.8672028l-104.3711548-59.3224945l62.2557373-39.2063141l111.3119354,63.2757111v83.7962799
		c0,2.6737061,1.4485168,5.1361694,3.7902527,6.4277649c1.1105347,0.6095886,2.3296814,0.9113464,3.5488586,0.9113464
		c1.3640137,0,2.7219849-0.3802185,3.9109497-1.1286316l38.1742859-24.0392151
		c2.1305237-1.3398743,3.4281311-3.6816406,3.4281311-6.2044373v-88.069397c0-0.0482788-0.0120544-0.0844879-0.0120544-0.1327667
		C327.7380066,212.7329559,327.7198792,212.4855042,327.6897278,212.2440796"/>
	<path style="display:inline;clip-path:url(#SVGID_36_);fill:#FFFFFF;" d="M392.8467407,188.1770935l-54.3312073,34.2089844
		c-3.4281311,2.1606903-4.4541626,6.6872864-2.2994995,10.12146c1.400238,2.2150116,3.7781982,3.4281464,6.2225647,3.4281464
		c1.3338318,0,2.6857605-0.3621368,3.8988953-1.1286316l54.3251343-34.2089691
		c3.4341736-2.1607056,4.4662476-6.6933289,2.305542-10.1214752
		C400.8074646,187.0424347,396.2748413,186.0164185,392.8467407,188.1770935"/>
	<path style="display:inline;clip-path:url(#SVGID_36_);fill:#FFFFFF;" d="M256.3096008,274.152771l-50.6133575,31.867218
		L90.6725235,240.6378937c-3.5186768-1.9977417-8.0030212-0.7664948-10.0067825,2.7582092
		c-2.0037766,3.524704-0.7725372,8.0030212,2.7521667,10.0067749l118.844162,67.5488434
		c1.1286316,0.6457825,2.3779755,0.9656677,3.6273193,0.9656677c1.3579712,0,2.7220001-0.380249,3.9109802-1.1346741
		l54.3311615-34.2089539c3.4281616-2.1546631,4.4602356-6.6873169,2.29953-10.1214905
		C264.2703552,273.0241699,259.7377319,271.9920959,256.3096008,274.152771"/>
	<path style="display:inline;clip-path:url(#SVGID_36_);fill:#FFFFFF;" d="M392.8467407,217.5335541l-54.3312073,34.2089844
		c-3.4281311,2.160675-4.4541626,6.6872711-2.2994995,10.1214447c1.400238,2.2150269,3.7781982,3.4281616,6.2225647,3.4281616
		c1.3338318,0,2.6857605-0.3621521,3.8988953-1.1286621l54.3251343-34.2089539
		c3.4341736-2.1607056,4.4662476-6.6933289,2.305542-10.1214752
		C400.8074646,216.39888,396.2748413,215.3728638,392.8467407,217.5335541"/>
	<path style="display:inline;clip-path:url(#SVGID_36_);fill:#FFFFFF;" d="M256.3096008,303.5092468l-50.6133575,31.867218
		L90.6725235,269.9943542c-3.5186768-1.9977417-8.0030212-0.7664795-10.0067825,2.7582092
		c-2.0037766,3.5247192-0.7725372,8.0030212,2.7521667,10.0067749l118.844162,67.5488586
		c1.1286316,0.6457825,2.3779755,0.9656677,3.6273193,0.9656677c1.3579712,0,2.7220001-0.380249,3.9109802-1.1346741
		l54.3311615-34.2089844c3.4281616-2.1546326,4.4602356-6.6872864,2.29953-10.12146
		S259.7377319,301.3485413,256.3096008,303.5092468"/>
	<path style="display:inline;clip-path:url(#SVGID_36_);fill:#FFFFFF;" d="M392.8467407,246.8900299l-54.3312073,34.2089691
		c-3.4281311,2.1607056-4.4541626,6.6872864-2.2994995,10.12146c1.400238,2.2149963,3.7781982,3.4281311,6.2225647,3.4281311
		c1.3338318,0,2.6857605-0.3621216,3.8988953-1.1286316l54.3251343-34.2089539
		c3.4341736-2.1607056,4.4662476-6.6933289,2.305542-10.1214752
		C400.8074646,245.7553558,396.2748413,244.7293396,392.8467407,246.8900299"/>
	<path style="display:inline;clip-path:url(#SVGID_36_);fill:#FFFFFF;" d="M256.3096008,332.8656921l-50.6133575,31.867218
		L90.6725235,299.3507996c-3.5186768-1.9977112-8.0030212-0.7664795-10.0067825,2.7582092
		c-2.0037766,3.5247192-0.7725372,8.0030212,2.7521667,10.0067749l118.844162,67.5488586
		c1.1286316,0.6457825,2.3779755,0.9656677,3.6273193,0.9656677c1.3579712,0,2.7220001-0.380249,3.9109802-1.1346741
		l54.3311615-34.2089539c3.4281616-2.1546631,4.4602356-6.6872864,2.29953-10.12146
		C264.2703552,331.7370911,259.7377319,330.7050171,256.3096008,332.8656921"/>
</g>
<g>
	<defs>
		<rect id="SVGID_37_" width="483.8121338" height="483.8121338"/>
	</defs>
	<clipPath id="SVGID_38_">
		<use xlink:href="#SVGID_37_"  style="overflow:visible;"/>
	</clipPath>
	<path style="clip-path:url(#SVGID_38_);fill:#B9658C;" d="M241.9060669,471.7168274
		c126.9220581,0,229.8107605-102.8887024,229.8107605-229.8107605S368.828125,12.0953035,241.9060669,12.0953035
		S12.0953035,114.9840012,12.0953035,241.9060669S114.9840012,471.7168274,241.9060669,471.7168274"/>
	
		<circle style="clip-path:url(#SVGID_38_);fill:none;stroke:#B9658C;stroke-width:4;" cx="241.9060669" cy="241.9060669" r="229.8107605"/>
	<path style="clip-path:url(#SVGID_38_);fill:#FFFFFF;" d="M185.9411011,225.2943726l-44.9945374-45.0005646l37.4833527-37.4833527
		c13.4741516-13.4741516,35.2759399-13.4741516,48.7501068,0c13.443924,13.443924,13.443924,35.3182831,0,48.7561646
		l-19.9814453,19.9875031c11.0550995-5.0739899,23.3318481-7.952652,36.273819-8.0131226l12.4823456-0.0604858
		c17.1088257-25.0433197,14.5809021-59.5875244-7.6381836-81.8005447c-25.1582336-25.1582108-65.8649597-25.1582108-91.0231934,0
		l-74.9666824,74.96064c-25.1038055,25.0977631-25.1038055,65.9315033,0,91.0292511
		c12.155777,12.1618347,28.3211441,18.8505249,45.5146255,18.8505249c9.9241943,0,19.4976196-2.2436829,28.1639099-6.4649353
		c-0.2479553-2.5762939-0.3930969-5.1889038-0.4051971-7.8256531
		C155.4790802,266.617981,166.4857941,242.2580414,185.9411011,225.2943726"/>
	<path style="clip-path:url(#SVGID_38_);fill:#FFFFFF;" d="M244.0342255,326.2937927h-0.1572266
		c-18.923111,0-34.3869476-15.3912659-34.4716187-34.3143921c-0.0907135-19.0077515,15.3005524-34.5441589,34.3083344-34.6348877
		l53.0137024-0.2418823c0.0362854,7.4688416,0.2781982,61.365509,0.3144531,68.9492493L244.0342255,326.2937927z
		 M395.2013245,245.6120758c-12.1315918-12.0227356-28.2243652-18.6448975-45.302948-18.6448975l-106.3177032,0.4898529
		c-35.4876251,0.1632843-64.232132,29.1738586-64.0688324,64.6614685
		c0.1632843,35.3243408,29.0347595,64.0627747,64.3651581,64.0688477l106.3116608-0.4838257
		c35.4876099-0.1632996,64.2320862-29.1678162,64.0748291-64.6675415
		C414.178833,273.8425293,407.4115295,257.7134399,395.2013245,245.6120758"/>
</g>
</svg>
