<?xml version="1.0" encoding="utf-8"?>
<!-- Generator: Adobe Illustrator 20.1.0, SVG Export Plug-In . SVG Version: 6.00 Build 0)  -->
<svg version="1.1" id="Ebene_1" xmlns="http://www.w3.org/2000/svg" xmlns:xlink="http://www.w3.org/1999/xlink" x="0px" y="0px"
	 viewBox="0 0 425.2 113" style="enable-background:new 0 0 425.2 113;" xml:space="preserve">
<style type="text/css">
	.st0{fill:#3E5A88;}
</style>
<polyline class="st0" points="164,13.8 164,78.6 169.8,78.6 169.8,30.4 218,78.7 223,78.7 223,30.4 271.3,78.7 275.4,78.7 
	275.4,13.8 270.4,13.8 270.4,51.3 232.9,13.8 218.1,13.8 218.1,52.9 178.9,13.8 163.9,13.8 "/>
<polygon class="st0" points="287.9,78.7 347,78.7 373.6,52 391,78.6 412.6,78.6 386.9,38.8 410.9,14.7 405.2,14.7 384.9,35.1 
	371.8,14.7 349.5,14.7 371.3,48.6 345.3,74.6 306.2,74.6 306.2,45.3 334.4,45.3 334.4,41.3 306.2,41.3 306.2,18.7 339.4,18.7 
	339.4,13.8 287.9,13.8 "/>
<g>
	<path class="st0" d="M115.3,11.7c40.2,0,40.2,34.1,40.2,34.1c0,36.8-40.6,34.8-40.6,34.8c-43.7,0-40.6-35.2-40.6-35.2
		C74.2,10.6,115.3,11.7,115.3,11.7 M114.6,75.1c21.6,0,19.1-28.5,19.1-28.5c0-30.4-18.6-30.2-18.6-30.2s-19.2-2.6-19.2,30.2
		C95.8,46.6,93.7,75.1,114.6,75.1"/>
	<path class="st0" d="M70.8,6.8c0,0-4.4-6.8-24.8-6.8C46,0,0-1.8,0,42.9C0,42.9-0.6,82,42.4,82c0,0,26.8-0.6,39.7-13.5l-4-5.4
		c0,0-10,10.6-27.7,10.6c0,0-27,3.7-27-33.7c0,0-1.2-35.3,25.2-35.3c0,0,14.1-1,22,11.2V6.5"/>
	<path class="st0" d="M418.9,17.5v-2h1.6c0.7,0,1.5,0.1,1.5,1c0,1.2-1.2,1-2,1H418.9z M420.9,18c1,0,1.8-0.4,1.8-1.6
		c0-0.5-0.2-1-0.6-1.2c-0.4-0.3-0.9-0.3-1.4-0.3h-2.5v5.7h0.7V18h1.3l1.6,2.6h0.8L420.9,18z M420.1,22.3c-2.5,0-4.5-2-4.5-4.5
		c0-2.5,2-4.5,4.5-4.5c2.5,0,4.5,2,4.5,4.5C424.6,20.3,422.6,22.3,420.1,22.3 M420.1,22.9c2.8,0,5.1-2.3,5.1-5.1
		c0-2.8-2.3-5.1-5.1-5.1c-2.8,0-5.1,2.3-5.1,5.1C415,20.6,417.3,22.9,420.1,22.9"/>
</g>
<polygon class="st0" points="9.3,106.1 10.8,106.1 10.8,96.2 10.9,96.2 14.6,106.1 15.9,106.1 19.7,96.2 19.7,96.2 19.7,106.1 
	21.2,106.1 21.2,94.2 19,94.2 15.2,104.2 11.5,94.2 9.3,94.2 "/>
<path class="st0" d="M45.1,95.6L45.1,95.6l2,5.6h-4L45.1,95.6z M39.6,106.1h1.6l1.3-3.6h5l1.3,3.6h1.8L46,94.2h-1.8L39.6,106.1z"/>
<g>
	<path class="st0" d="M69.1,106.1h1.6V101h3.9c1.5,0,1.8,1,2,2.2c0.2,1.2,0,2.5,0.4,2.9h1.8c-0.7-0.8-0.6-2.1-0.7-3.3
		c-0.1-1.2-0.4-2.2-1.8-2.5v0c1.4-0.4,2.1-1.6,2.1-3c0-1.9-1.4-3.1-3.6-3.1h-5.6V106.1z M70.7,99.7v-4.2h3.9c1.5,0,2.1,0.9,2.1,2
		c0,1.7-1.3,2.1-2.8,2.1H70.7z"/>
</g>
<polygon class="st0" points="97.7,106.1 99.3,106.1 99.3,101.9 101.3,100.1 105.6,106.1 107.6,106.1 102.4,99 107.4,94.2 
	105.3,94.2 99.3,100.1 99.3,94.2 97.7,94.2 "/>
<polygon class="st0" points="126.1,106.1 134.4,106.1 134.4,104.8 127.7,104.8 127.7,100.7 133.9,100.7 133.9,99.3 127.7,99.3 
	127.7,95.5 134.3,95.5 134.3,94.2 126.1,94.2 "/>
<polygon class="st0" points="156.2,106.1 157.8,106.1 157.8,95.5 161.8,95.5 161.8,94.2 152.2,94.2 152.2,95.5 156.2,95.5 "/>
<rect x="180.3" y="94.2" class="st0" width="1.6" height="11.9"/>
<polygon class="st0" points="201.8,106.1 203.3,106.1 203.3,96.6 203.3,96.6 209.6,106.1 211.3,106.1 211.3,94.2 209.8,94.2 
	209.8,103.9 209.8,103.9 203.5,94.2 201.8,94.2 "/>
<g>
	<path class="st0" d="M240.4,106.1h1v-6.3h-5.2v1.3h3.8c0.1,2.2-1.4,3.9-3.8,3.9c-2.7,0-4.1-2.3-4.1-4.8c0-2.6,1.2-5.1,4.1-5.1
		c1.8,0,3.2,0.8,3.5,2.6h1.6c-0.5-2.8-2.5-4-5.1-4c-3.8,0-5.7,3-5.7,6.5c0,3.1,2.1,6,5.7,6c1.4,0,2.9-0.5,3.8-1.8L240.4,106.1z"/>
	<path class="st0" d="M292.2,106.1h1v-6.3h-5.2v1.3h3.8c0.1,2.2-1.4,3.9-3.8,3.9c-2.7,0-4.1-2.3-4.1-4.8c0-2.6,1.2-5.1,4.1-5.1
		c1.8,0,3.2,0.8,3.5,2.6h1.6c-0.5-2.8-2.5-4-5.1-4c-3.8,0-5.7,3-5.7,6.5c0,3.1,2.1,6,5.7,6c1.4,0,2.9-0.5,3.8-1.8L292.2,106.1z"/>
	<path class="st0" d="M312.7,106.1h1.6V101h3.9c1.5,0,1.8,1,2,2.2c0.2,1.2,0,2.5,0.4,2.9h1.8c-0.7-0.8-0.6-2.1-0.7-3.3
		c-0.1-1.2-0.4-2.2-1.8-2.5v0c1.4-0.4,2.1-1.6,2.1-3c0-1.9-1.4-3.1-3.6-3.1h-5.6V106.1z M314.3,99.7v-4.2h3.9c1.5,0,2.1,0.9,2.1,2
		c0,1.7-1.3,2.1-2.8,2.1H314.3z"/>
	<path class="st0" d="M342.3,100.2c0-2.4,1.2-4.9,4.1-4.9s4.1,2.5,4.1,4.9s-1.2,4.9-4.1,4.9S342.3,102.6,342.3,100.2 M340.7,100.2
		c0,3.2,1.9,6.2,5.7,6.2c3.8,0,5.7-3,5.7-6.2s-1.9-6.2-5.7-6.2C342.6,93.9,340.7,96.9,340.7,100.2"/>
	<path class="st0" d="M380.8,94.2h-1.6v7.6c0,2.1-1.1,3.3-3.1,3.3c-2.1,0-3.3-1.2-3.3-3.3v-7.6h-1.6v7.6c0,3.2,1.8,4.6,4.9,4.6
		c3,0,4.7-1.6,4.7-4.6V94.2z"/>
	<path class="st0" d="M402.1,95.5h3.1c1.8,0,2.6,0.8,2.6,2.2c0,1.4-0.8,2.2-2.6,2.2h-3.1V95.5z M400.5,106.1h1.6v-4.9h3.6
		c2.4,0,3.7-1.3,3.7-3.5c0-2.2-1.3-3.5-3.7-3.5h-5.2V106.1z"/>
</g>
<rect x="1.7" y="112.1" class="st0" width="415.9" height="0.9"/>
</svg>
