<?xml version="1.0" encoding="utf-8"?>
<!-- Generator: Adobe Illustrator 20.1.0, SVG Export Plug-In . SVG Version: 6.00 Build 0)  -->
<svg version="1.1" id="Ebene_1" xmlns="http://www.w3.org/2000/svg" xmlns:xlink="http://www.w3.org/1999/xlink" x="0px" y="0px"
	 viewBox="0 0 489.6 131" style="enable-background:new 0 0 489.6 131;" xml:space="preserve">
<style type="text/css">
	.st0{fill:#3E5A88;}
</style>
<g>
	<path class="st0" d="M483.6,122.2h-4c-0.1,0-0.2,0-0.2-0.1v-5.4c0-0.1,0.1-0.1,0.2-0.1h4c2.2,0,3.5,1.1,3.5,2.9
		C487.1,121.1,485.8,122.2,483.6,122.2 M479.2,130.7c0.2,0,0.3-0.1,0.3-0.2v-6.2c0-0.1,0.1-0.1,0.2-0.1h4.1c3.4,0,5.7-1.9,5.7-4.8
		c0-2.9-2.2-4.8-5.7-4.8h-6.4c-0.2,0-0.3,0.1-0.3,0.2v15.7c0,0.1,0.1,0.2,0.3,0.2H479.2z M447.9,131c3.9,0,6.3-2.1,6.3-5.9v-10.3
		c0-0.1-0.1-0.2-0.3-0.2h-1.8c-0.2,0-0.3,0.1-0.3,0.2v10.3c0,2.6-1.6,4-4,4c-2.4,0-4-1.3-4-4v-10.3c0-0.1-0.1-0.2-0.3-0.2h-1.8
		c-0.2,0-0.3,0.1-0.3,0.2v10.3C441.6,128.9,444,131,447.9,131 M412.6,129c-2,0-3.2-0.9-3.8-2.4c-0.2-0.6-0.4-1.6-0.4-4
		c0-2.3,0.2-3.4,0.4-4c0.6-1.6,1.8-2.4,3.8-2.4c2,0,3.3,0.9,3.8,2.4c0.2,0.6,0.4,1.6,0.4,4c0,2.3-0.2,3.4-0.4,4
		C415.9,128.2,414.6,129,412.6,129 M412.6,131c3,0,5.2-1.3,6.1-3.8c0.3-0.9,0.5-1.9,0.5-4.6c0-2.7-0.1-3.7-0.5-4.6
		c-0.9-2.5-3.1-3.8-6.1-3.8c-3,0-5.1,1.3-6.1,3.8c-0.3,0.9-0.5,1.9-0.5,4.6c0,2.7,0.1,3.7,0.5,4.6C407.5,129.7,409.6,131,412.6,131
		 M378.5,121.9h-4.2c-0.1,0-0.2,0-0.2-0.1v-5.1c0-0.1,0.1-0.1,0.2-0.1h4.2c2.1,0,3.3,1,3.3,2.7C381.8,120.9,380.5,121.9,378.5,121.9
		 M384.2,130.7c0.2,0,0.3-0.1,0.2-0.3l-3.8-6.8c2.2-0.6,3.5-2.2,3.5-4.4c0-2.8-2.3-4.7-5.6-4.7h-6.5c-0.2,0-0.3,0.1-0.3,0.2v15.7
		c0,0.1,0.1,0.2,0.3,0.2h1.8c0.2,0,0.3-0.1,0.3-0.2V124c0-0.1,0.1-0.1,0.2-0.1h3.9l3.6,6.6c0.1,0.2,0.2,0.2,0.3,0.2H384.2z
		 M336.8,127.2c0.9,2.5,3.1,3.8,6.1,3.8c3,0,5.2-1.4,6.1-3.8c0.3-0.8,0.4-2.1,0.4-3.6v-1.2c0-0.1-0.1-0.2-0.3-0.2h-5.7
		c-0.2,0-0.3,0.1-0.3,0.2v1.4c0,0.1,0.1,0.2,0.3,0.2h3.5c0.1,0,0.2,0,0.2,0.1c0,1.2-0.2,2-0.3,2.6c-0.6,1.5-2,2.3-3.8,2.3
		c-2,0-3.3-0.9-3.9-2.4c-0.2-0.6-0.4-1.5-0.4-4c0-2.5,0.1-3.4,0.4-4c0.6-1.6,1.8-2.4,3.9-2.4c1.9,0,3,0.7,3.9,2.1
		c0.1,0.1,0.2,0.2,0.4,0.1l1.6-0.7c0.1-0.1,0.2-0.2,0.1-0.3c-0.9-1.8-2.8-3.2-5.9-3.2c-3,0-5.2,1.3-6.1,3.8
		c-0.3,0.9-0.5,1.9-0.5,4.6C336.3,125.3,336.5,126.3,336.8,127.2 M272.4,127.2c0.9,2.5,3.1,3.8,6.1,3.8c3,0,5.2-1.4,6.1-3.8
		c0.3-0.8,0.4-2.1,0.4-3.6v-1.2c0-0.1-0.1-0.2-0.3-0.2H279c-0.2,0-0.3,0.1-0.3,0.2v1.4c0,0.1,0.1,0.2,0.3,0.2h3.5
		c0.1,0,0.2,0,0.2,0.1c0,1.2-0.2,2-0.3,2.6c-0.6,1.5-2,2.3-3.8,2.3c-2,0-3.3-0.9-3.9-2.4c-0.2-0.6-0.4-1.5-0.4-4
		c0-2.5,0.1-3.4,0.4-4c0.6-1.6,1.8-2.4,3.9-2.4c1.9,0,3,0.7,3.9,2.1c0.1,0.1,0.2,0.2,0.4,0.1l1.6-0.7c0.1-0.1,0.2-0.2,0.1-0.3
		c-0.9-1.8-2.8-3.2-5.9-3.2c-3,0-5.2,1.3-6.1,3.8c-0.3,0.9-0.5,1.9-0.5,4.6C271.9,125.3,272,126.3,272.4,127.2 M236.6,130.5
		c0,0.1,0.1,0.2,0.3,0.2h1.7c0.2,0,0.3-0.1,0.3-0.2v-12.1h0.1l8.1,12.1c0.1,0.2,0.3,0.2,0.4,0.2h1.7c0.2,0,0.3-0.1,0.3-0.2v-15.7
		c0-0.1-0.1-0.2-0.3-0.2h-1.7c-0.2,0-0.3,0.1-0.3,0.2v12.2h-0.1l-8.1-12.2c-0.1-0.2-0.2-0.2-0.4-0.2h-1.7c-0.2,0-0.3,0.1-0.3,0.2
		V130.5z M211.3,130.5c0,0.1,0.1,0.2,0.3,0.2h1.8c0.2,0,0.3-0.1,0.3-0.2v-15.7c0-0.1-0.1-0.2-0.3-0.2h-1.8c-0.2,0-0.3,0.1-0.3,0.2
		V130.5z M183.9,130.7c0.2,0,0.3-0.1,0.3-0.2v-13.9c0-0.1,0.1-0.1,0.2-0.1h4.9c0.2,0,0.3-0.1,0.3-0.2v-1.5c0-0.1-0.1-0.2-0.3-0.2
		h-12.4c-0.2,0-0.3,0.1-0.3,0.2v1.5c0,0.1,0.1,0.2,0.3,0.2h4.9c0.1,0,0.2,0,0.2,0.1v13.9c0,0.1,0.1,0.2,0.3,0.2H183.9z M144,130.5
		c0,0.1,0.1,0.2,0.3,0.2h10.7c0.2,0,0.3-0.1,0.3-0.2V129c0-0.1-0.1-0.2-0.3-0.2h-8.5c-0.1,0-0.2,0-0.2-0.1v-4.9
		c0-0.1,0.1-0.1,0.2-0.1h7.2c0.2,0,0.3-0.1,0.3-0.2v-1.5c0-0.1-0.1-0.2-0.3-0.2h-7.2c-0.1,0-0.2,0-0.2-0.1v-4.8
		c0-0.1,0.1-0.1,0.2-0.1h8.5c0.2,0,0.3-0.1,0.3-0.2v-1.5c0-0.1-0.1-0.2-0.3-0.2h-10.7c-0.2,0-0.3,0.1-0.3,0.2V130.5z M108.9,130.5
		c0,0.1,0.1,0.2,0.3,0.2h1.8c0.2,0,0.3-0.1,0.3-0.2V126l3.2-3.5l5,8c0.1,0.2,0.2,0.2,0.4,0.2h2.1c0.2,0,0.3-0.1,0.2-0.3l-6.1-9.6
		l5.6-6.1c0.1-0.1,0.1-0.3-0.1-0.3h-2.2c-0.2,0-0.3,0-0.4,0.2l-7.6,8.5v-8.4c0-0.1-0.1-0.2-0.3-0.2h-1.8c-0.2,0-0.3,0.1-0.3,0.2
		V130.5z M80.7,121.9h-4.2c-0.1,0-0.2,0-0.2-0.1v-5.1c0-0.1,0.1-0.1,0.2-0.1h4.2c2.1,0,3.3,1,3.3,2.7
		C84,120.9,82.8,121.9,80.7,121.9 M86.5,130.7c0.2,0,0.3-0.1,0.2-0.3l-3.8-6.8c2.2-0.6,3.5-2.2,3.5-4.4c0-2.8-2.3-4.7-5.6-4.7h-6.5
		c-0.2,0-0.3,0.1-0.3,0.2v15.7c0,0.1,0.1,0.2,0.3,0.2h1.8c0.2,0,0.3-0.1,0.3-0.2V124c0-0.1,0.1-0.1,0.2-0.1h3.9l3.6,6.6
		c0.1,0.2,0.2,0.2,0.3,0.2H86.5z M42,125l2.8-7.4h0.1l2.8,7.4H42z M37.5,130.5c-0.1,0.1,0,0.2,0.2,0.2h1.8c0.2,0,0.3-0.1,0.3-0.2
		l1.4-3.5h7.2l1.4,3.5c0.1,0.2,0.2,0.2,0.3,0.2H52c0.2,0,0.2-0.1,0.2-0.2l-6.1-15.7c-0.1-0.1-0.2-0.2-0.3-0.2H44
		c-0.2,0-0.3,0.1-0.3,0.2L37.5,130.5z M0.3,130.5c0,0.1,0.1,0.2,0.3,0.2h1.7c0.2,0,0.3-0.1,0.3-0.2v-11.3h0.1l4.4,8.9
		c0.1,0.2,0.2,0.3,0.5,0.3h1.1c0.2,0,0.4-0.1,0.5-0.3l4.4-8.9h0.1v11.3c0,0.1,0.1,0.2,0.3,0.2h1.7c0.2,0,0.3-0.1,0.3-0.2v-15.7
		c0-0.1-0.1-0.2-0.3-0.2h-1.7c-0.2,0-0.3,0.1-0.4,0.2l-5.2,10.9H8l-5.3-10.9c-0.1-0.2-0.2-0.2-0.4-0.2H0.6c-0.2,0-0.3,0.1-0.3,0.2
		V130.5z"/>
</g>
<polyline class="st0" points="198.2,17 198.2,96.6 205.3,96.6 205.3,37.4 264.6,96.7 270.7,96.7 270.7,37.4 330,96.7 335.2,96.7 
	335.2,17 329,17 329,63 282.9,16.9 264.6,16.9 264.6,65 216.5,16.9 198.2,16.9 "/>
<g>
	<path class="st0" d="M140.4,92.2c26.6,0,24.4-35,24.4-35c0-37.3-23.7-37.1-23.7-37.1s-24.5-3.2-24.5,37.1
		C116.5,57.2,114.7,92.2,140.4,92.2 M141.3,14.3c49.4,0,48.6,41.9,48.6,41.9c0,45.2-49.1,42.8-49.1,42.8
		c-53.7,0-49.9-43.3-49.9-43.3C90.8,13,141.3,14.3,141.3,14.3"/>
	<path class="st0" d="M89.7,10.3c0,0-13.5-9.8-33.2-10.3C56.5,0,0-2.2,0,52.8c0,0-0.8,48,52.1,48c0,0,20.5-0.4,40.9-13.4L89.7,82
		c0,0-12.1,7-27.9,8.9c0,0-35.5,4.3-35.5-41.7c0,0,0.5-41.5,33-41.5c0,0,12.2-1.4,26.5,8.5L89.7,10.3"/>
</g>
<polygon class="st0" points="481.5,17 458.7,43.2 443.6,17 417.7,17 443.2,61.1 412.2,96.7 420.3,96.7 446.4,66.7 463.8,96.7 
	489.6,96.7 462,48.8 489.6,17 "/>
<polygon class="st0" points="407.1,91.7 407.1,91.7 407.1,91.7 366.8,91.7 366.8,55.7 400.7,55.7 400.7,50.7 366.8,50.7 366.8,23 
	406.8,23 406.8,17 344.4,17 344.4,96.7 397.6,96.7 402,96.7 407.1,96.7 "/>
</svg>
