<?xml version="1.0" encoding="utf-8"?>
<!-- Generator: Adobe Illustrator 19.2.1, SVG Export Plug-In . SVG Version: 6.00 Build 0)  -->
<svg version="1.1" id="Ebene_1" xmlns="http://www.w3.org/2000/svg" xmlns:xlink="http://www.w3.org/1999/xlink" x="0px" y="0px"
	 viewBox="0 0 483.3298645 483.3298645" style="enable-background:new 0 0 483.3298645 483.3298645;" xml:space="preserve">
<g style="display:none;">
	<defs>
		<rect id="SVGID_1_" y="0" width="483.3298645" height="483.3298645"/>
	</defs>
	<clipPath id="SVGID_2_" style="display:inline;">
		<use xlink:href="#SVGID_1_"  style="overflow:visible;"/>
	</clipPath>
	<path style="display:inline;clip-path:url(#SVGID_2_);fill:#8CB110;" d="M241.6649323,471.2466125
		c126.7955475,0,229.5816803-102.7861328,229.5816803-229.5816803S368.4604797,12.0832462,241.6649323,12.0832462
		S12.0832462,114.8693848,12.0832462,241.6649323S114.8693848,471.2466125,241.6649323,471.2466125"/>
	
		<circle style="display:inline;clip-path:url(#SVGID_2_);fill:none;stroke:#8CB110;stroke-width:4;" cx="241.6649323" cy="241.6649323" r="229.5816803"/>
	<path style="display:inline;clip-path:url(#SVGID_2_);fill:#FFFFFF;" d="M244.1462402,390.6990967
		c0,17.7804871,14.4032288,32.2139282,32.2562256,32.2139282c17.7804871,0,32.2199707-14.4334412,32.2199707-32.2139282
		c0-17.4784241-13.9138489-31.6218567-31.2472839-32.1414185l-8.9899292-39.1980591
		c-5.0447693,1.7399902-10.3190918,3.0026855-15.8109283,3.6430969l8.9899445,39.2342834
		C251.2451324,367.6140442,244.1462402,378.2654419,244.1462402,390.6990967 M95.2443924,267.5104065
		c-17.8167343,0-32.2199821,14.3971863-32.2199821,32.2139282c0,17.8106995,14.4032478,32.2562256,32.2199821,32.2562256
		s32.2441483-14.4455261,32.2441483-32.2562256c0-0.743103-0.1389694-1.4499817-0.2174911-2.1508179l50.1092148-16.7775879
		c-2.2656097-4.8937073-4.0539398-10.0169983-5.2380981-15.4061279l-49.9219284,16.741333
		C116.4686127,273.3345337,106.5241013,267.5104065,95.2443924,267.5104065 M196.5684509,193.7180328l-21.7498322-20.5596466
		c2.5193481-4.5976868,4.1143494-9.7934875,4.1143494-15.4001007c0-17.8227997-14.4274139-32.2562332-32.2501984-32.2562332
		c-17.8106995,0-32.2562332,14.4334335-32.2562332,32.2562332c0,17.7744446,14.4455338,32.219986,32.2562332,32.219986
		c6.2772522,0,12.0953522-1.8608398,17.0373688-4.9843445l21.7136078,20.5294189
		C188.7324677,201.1794281,192.405777,197.2040405,196.5684509,193.7180328 M283.0422058,251.059082
		c0,21.6471252-17.6113281,39.2524109-39.2524109,39.2524109s-39.2463989-17.6052856-39.2463989-39.2524109
		c0-21.641098,17.6053009-39.2463989,39.2463989-39.2463989S283.0422058,229.417984,283.0422058,251.059082 M243.7897949,191.93573
		c-32.6006012,0-59.1233215,26.5227509-59.1233215,59.1233521c0,32.6066284,26.5227203,59.1293335,59.1233215,59.1293335
		c32.6066284,0,59.129364-26.5227051,59.129364-59.1293335C302.9191589,218.4584808,276.3964233,191.93573,243.7897949,191.93573
		 M358.5081177,111.6909103c0-17.7804794-14.4394836-32.2139206-32.2562256-32.2139206
		s-32.2199707,14.3971634-32.2199707,32.2139206c0,8.8388748,3.5705872,16.8561172,9.3161926,22.6802444l-28.7943726,48.4417419
		c4.9661865,2.2595673,9.6061707,5.044754,13.9198914,8.3132629l28.8729248-48.5806885
		c2.8516235,0.8035278,5.7878723,1.4016418,8.9053345,1.4016418
		C344.068634,143.947113,358.5081177,129.5076447,358.5081177,111.6909103 M420.3078918,264.0606384
		c0-17.8167419-14.4395142-32.2562103-32.2562561-32.2562103c-13.8413391,0-25.5741882,8.83284-30.1416626,21.1215057
		l-40.122406-3.9693604c0,0.2899933,0.0362549,0.5860443,0.0362549,0.8820801
		c0,5.2320557-0.5497742,10.3553467-1.5949707,15.2973938l40.0861511,3.9331055
		c2.4529114,15.4000854,15.6659546,27.2054138,31.7366333,27.2054138
		C405.8683777,296.2745667,420.3078918,281.8411255,420.3078918,264.0606384"/>
</g>
<g style="display:none;">
	<g style="display:inline;">
		<defs>
			<rect id="SVGID_3_" width="483.3298645" height="483.3298645"/>
		</defs>
		<clipPath id="SVGID_4_">
			<use xlink:href="#SVGID_3_"  style="overflow:visible;"/>
		</clipPath>
		<path style="clip-path:url(#SVGID_4_);fill:#FDC400;" d="M241.6649323,471.2466125
			c126.7955475,0,229.5816803-102.7861328,229.5816803-229.5816803S368.4604797,12.0832462,241.6649323,12.0832462
			S12.0832462,114.8693848,12.0832462,241.6649323S114.8693848,471.2466125,241.6649323,471.2466125"/>
		
			<circle style="clip-path:url(#SVGID_4_);fill:none;stroke:#FDC400;stroke-width:4;" cx="241.6649323" cy="241.6649323" r="229.5816803"/>
		<path style="clip-path:url(#SVGID_4_);fill:#FFFFFF;" d="M360.5284119,224.8831177h-99.0523987v-39.7357483h99.0523987
			V224.8831177z M274.3567505,165.2825012H258.672699c5.745575-17.8650818,16.1130066-42.357811,33.2349548-59.5341568
			c8.585144-8.6032715,19.296936-13.7386398,28.6493835-13.7386398c3.3108215,0,7.9568176,0.6947708,11.2857361,4.0297546
			c8.0534973,8.0776443,3.5343628,26.7945862-9.6847229,40.043869
			C308.5583801,149.7253418,290.2583008,159.1079559,274.3567505,165.2825012 M261.4760132,234.8155518h79.2358704v129.1336365
			h-79.2358704V234.8155518z M221.8550568,363.9491882h-79.2419434V234.8155365h79.2419434V363.9491882z M221.8550568,224.8831177
			h-99.0524216v-39.7357483h99.0524216V224.8831177z M213.9828033,158.715271
			c-0.5618896-0.151062-1.1237488-0.3020782-1.6977081-0.46521c-21.0791931-5.8724518-37.7661743-14.5301208-48.2483826-25.0425262
			c-4.8997498-4.9118347-7.9749298-11.2253494-8.4461975-17.3153c-0.2174988-2.8335342-0.012085-8.1501465,3.7760162-11.9503403
			c3.1718597-3.1839371,7.3647461-3.8485184,10.3251343-3.8485184c6.5793304,0,13.4546967,3.1114578,18.8619537,8.5307922
			c10.4822235,10.5124054,19.1156769,27.2477036,24.9700165,48.387352
			C213.6807251,157.5854797,213.8317566,158.1473389,213.9828033,158.715271 M360.5284119,244.7479706h19.8044434v-79.4654694
			h-58.3379211c5.6126709-3.9995575,10.9897156-8.4522247,15.9257202-13.3942719
			c10.3372192-10.3674316,17.2548828-23.1273346,19.472168-35.9234924
			c2.4347534-14.0225983-1.1358337-27.0483551-9.7874451-35.7301407
			c-6.9055786-6.9237289-16.2579956-10.5788803-27.0483398-10.5788803c-15.3578186,0-31.5493469,7.3949356-44.3998718,20.2877808
			c-20.5838318,20.632103-32.5764618,49.1183624-39.0289001,69.4484253
			c-4.7789154-20.4267273-14.3005219-48.0067291-32.8181152-66.5726242
			c-9.9324036-9.9626541-22.631897-15.0799103-34.6184845-15.0799103c-9.7994995,0-19.1217346,3.4195709-26.0816803,10.397644
			c-15.4725952,15.5148697-13.3822021,42.7686386,4.670166,60.8753891
			c6.4343262,6.4524384,13.962204,11.8173981,21.8888092,16.2700806H102.992157v79.4654694h19.8104782v139.0721283h237.725769
			V244.7479706z"/>
	</g>
</g>
<g style="display:none;">
	<defs>
		<rect id="SVGID_5_" width="483.3298645" height="483.3298645"/>
	</defs>
	<clipPath id="SVGID_6_" style="display:inline;">
		<use xlink:href="#SVGID_5_"  style="overflow:visible;"/>
	</clipPath>
	<path style="display:inline;clip-path:url(#SVGID_6_);fill:#007A77;" d="M241.6649323,471.2466125
		c126.7955475,0,229.5816803-102.7861328,229.5816803-229.5816803S368.4604797,12.0832462,241.6649323,12.0832462
		S12.0832462,114.8693848,12.0832462,241.6649323S114.8693848,471.2466125,241.6649323,471.2466125"/>
	
		<circle style="display:inline;clip-path:url(#SVGID_6_);fill:none;stroke:#007A77;stroke-width:4;" cx="241.6649323" cy="241.6649323" r="229.5816803"/>
	<path style="display:inline;clip-path:url(#SVGID_6_);fill:#FFFFFF;" d="M257.114563,339.1507568
		c-0.5074768,0.434967-0.9425049,0.8699951-1.4560242,1.2264404l23.1514893,71.0917664
		c0.7975159,2.4589539,4.0720825,3.0389404,5.6791382,1.0150146l16.8138428-21.4115295
		c0.7974854-1.0089417,2.1810303-1.516449,3.4920349-1.0814514l26.2025146,7.5943298
		c2.555603,0.7250061,4.8091431-1.661438,4.0116577-4.1264343l-21.9854736-67.5453491
		c-4.223114,4.2653809-9.9747314,6.7243347-16.3063354,6.7243347c-2.259552,0-4.4405823-0.2839661-6.627655-0.9364624
		l-18.6323853-5.5643311L257.114563,339.1507568z M148.280777,393.6039124
		c-0.7975006,2.4589233,1.5345764,4.8453674,4.0055847,4.1264038l26.2085724-7.6003418
		c1.3110352-0.3564758,2.6945648,0.0785217,3.4920654,1.0874939l16.81987,21.4054565
		c1.594986,2.0239258,4.8755798,1.4500122,5.6730804-1.0089417l23.1515045-71.0917969
		c-0.5135345-0.3624878-1.0210266-0.7914429-1.4560394-1.2264404l-14.3428192-13.0921936l-18.6323547,5.5703735
		c-2.114563,0.6464539-4.3680878,0.9364624-6.627655,0.9364624c-6.2591248,0-12.083252-2.5314636-16.3063507-6.7243347
		L148.280777,393.6039124z M253.108963,146.0604706c0-6.2893219-5.0205688-11.4972076-11.4307404-11.4972076
		c-34.2862091,0-62.2347565,27.7673035-62.2347565,61.8299866c0,6.3678589,5.1655884,11.4246979,11.4972076,11.4246979
		c6.4101562,0,11.5032501-5.1293335,11.5032501-11.4246979c0-21.4779663,17.5448761-38.9080658,39.1618042-38.9080658
		C248.0158844,157.4851837,253.108963,152.3498077,253.108963,146.0604706 M328.5265503,196.3932495
		c0,47.5838165-38.9443054,86.2743835-86.8483276,86.2743835c-47.897995,0-86.8422852-38.690567-86.8422852-86.2743835
		s38.9442902-86.2743988,86.8422852-86.2743988C289.5822449,110.1188507,328.5265503,148.8094025,328.5265503,196.3932495
		 M359.3207092,199.867157c-1.2385254-2.0964203-1.2385254-4.7003784,0-6.8753357l12.0892944-21.187973
		c1.8124695-3.1053925,0.8639221-7.0868378-2.1145935-9.1107941l-20.1669006-13.8836517
		c-2.0360413-1.3714294-3.1295776-3.7578735-2.9845886-6.1443176l1.6735229-24.299408
		c0.2235718-3.618927-2.3320618-6.8028641-5.8966064-7.3043213l-24.2390137-3.836441
		c-2.3984985-0.3624802-4.5130615-2.023941-5.3890991-4.2653961l-9.0986938-22.7044144
		c-1.3110352-3.3289032-5.0205994-5.1353683-8.5186768-4.0539169l-23.5079651,7.0143433
		c-2.3320618,0.724968-4.8816528,0.1449661-6.7001648-1.5164413l-18.1248627-16.4151077
		c-2.6945648-2.4589272-6.7726593-2.4589272-9.4672394,0l-17.9798584,16.4151077
		c-1.8185425,1.6614075-4.3680878,2.2414093-6.6941223,1.5164413l-23.5139923-7.0143433
		c-3.4920502-1.0089493-7.1351471,0.7250137-8.518692,4.0539169l-9.0986786,22.6319351
		c-0.9485321,2.2414322-2.9845581,3.9089279-5.3891144,4.2653961l-24.2450409,3.8364182
		c-3.5585175,0.5739594-6.1080933,3.7578964-5.8905945,7.3043213l1.6735229,24.2933578
		c0.1450195,2.4649963-0.9485168,4.7789307-2.9845581,6.1503906l-20.2394257,13.956131
		c-2.9845581,2.0239563-3.8545609,6.0054016-2.1085434,9.1107941l12.0832443,21.187973
		c1.2385483,2.102478,1.2385483,4.7064209,0,6.8753357l-12.0832443,21.187973
		c-1.8185196,3.1114655-0.8760147,7.0868378,2.1085434,9.1107941l20.1669312,13.8836517
		c2.036026,1.3774719,3.1295624,3.763916,2.9845734,6.1503601l-1.6735382,24.2993927
		c-0.217514,3.6128845,2.3260193,6.7968445,5.8966217,7.3043213l24.2450409,3.8304138
		c2.3985138,0.3624878,4.5070496,2.0239258,5.3830872,4.2653809l9.0986786,22.6379395
		c1.3110352,3.3229065,5.0205841,5.1293335,8.518692,4.0479126l23.5079346-7.0143433
		c2.332077-0.7189636,4.8816528-0.144989,6.7001648,1.516449l18.1248779,16.4211426
		c2.6945648,2.4589233,6.772644,2.4589233,9.4611969,0l18.1309052-16.4211426
		c1.818512-1.661438,4.368103-2.2354126,6.6940918-1.516449l23.5140076,7.0143433
		c3.4920654,1.0149841,7.1351624-0.7250061,8.5187073-4.0479126l9.0986633-22.6379395
		c0.9485474-2.2414551,2.9845886-3.9028931,5.3891296-4.2653809l24.2450562-3.8304138
		c3.5584717-0.5799866,6.1080627-3.763916,5.890564-7.3043213l-1.6735229-24.2993927
		c-0.144989-2.4649963,0.9485474-4.7728882,2.9845581-6.1503601l20.1669312-13.8836517
		c2.9845581-2.0239563,3.8545532-5.9993286,2.1085205-9.1107941L359.3207092,199.867157z"/>
</g>
<g style="display:none;">
	<defs>
		<rect id="SVGID_7_" width="483.3298645" height="483.3298645"/>
	</defs>
	<clipPath id="SVGID_8_" style="display:inline;">
		<use xlink:href="#SVGID_7_"  style="overflow:visible;"/>
	</clipPath>
	<path style="display:inline;clip-path:url(#SVGID_8_);fill:#C50938;" d="M241.6649323,471.2466125
		c126.7955475,0,229.5816803-102.7861328,229.5816803-229.5816803S368.4604797,12.0832462,241.6649323,12.0832462
		S12.0832462,114.8693848,12.0832462,241.6649323S114.8693848,471.2466125,241.6649323,471.2466125"/>
	
		<circle style="display:inline;clip-path:url(#SVGID_8_);fill:none;stroke:#C50938;stroke-width:4;" cx="241.6649323" cy="241.6649323" r="229.5816803"/>
	<path style="display:inline;clip-path:url(#SVGID_8_);fill:#FFFFFF;" d="M391.7756653,201.8832703
		c0-4.525177-3.6491394-8.1984711-8.150116-8.1984711c-4.4949646,0-8.1501465,3.6732941-8.1501465,8.1984711
		c0,4.5372467,3.6551819,8.2105713,8.1501465,8.2105713C388.1265259,210.0938416,391.7756653,206.420517,391.7756653,201.8832703
		 M406.1607971,198.6208038c0,2.2716522-0.8760681,4.3982849-2.4649658,6.0053711l-23.5744324,23.7737732l-80.9698181-81.6343994
		c-1.5889587-1.6070862-2.4589539-3.7337189-2.4589539-6.0114288c0-2.2595673,0.8699951-4.3862,2.4589539-5.9932861
		l17.6354675-17.7744446c1.5829163-1.6010284,3.7035522-2.4831085,5.9449768-2.4831085
		c2.247467,0,4.3560181,0.8820801,5.9509888,2.4831085l75.0128174,75.6350861
		C405.284729,194.2225037,406.1607971,196.3551941,406.1607971,198.6208038 M368.2919006,240.3200684l-36.4974365,36.7934875
		l-92.8295593-93.5907745c-1.3895721-1.4016724-3.2261963-2.2656097-5.1837006-2.4408112l-47.4690247-4.1868439
		l-0.7370911-0.0241699c-3.9391327,0-7.394928,2.7972717-8.1863861,6.7666016l-3.8062286,19.0250854
		c-2.3743439,11.8899078-13.9017639,19.6231995-25.7070923,17.2186127
		c-5.7093353-1.1599731-10.6393127-4.4949646-13.8655396-9.3886566c-3.2262268-4.899765-4.3680878-10.7661896-3.2141266-16.5298767
		l3.8001709-19.0311279c5.6730804-28.3412628,33.1383057-46.7621765,61.2741547-41.040741l0.1752014,0.0362549
		l81.2779388,14.6690369L368.2919006,240.3200684z M200.503952,369.3570557l-12.3309631,12.4276123
		c-2.3562164,2.3864441-6.2047424,2.3804016-8.5670166,0l-4.2895355-4.3257751
		c-2.3562317-2.3804016-2.3562317-6.2591248,0-8.6395569l12.3309479-12.4276123L200.503952,369.3570557z M175.8178864,344.4655762
		l-12.3309479,12.4336548c-2.3562317,2.3804016-6.2047577,2.3804016-8.5670166,0l-4.2895813-4.3318481
		c-1.141861-1.1539307-1.7762299-2.6824646-1.7762299-4.3197632c0-1.6251831,0.6343689-3.1597595,1.7762299-4.3137207
		l12.3249207-12.4276123L175.8178864,344.4655762z M151.1257629,319.5740967l-12.3128204,12.4336548
		c-2.3622894,2.3804016-6.2107849,2.3804016-8.5730743,0l-4.2895508-4.3258057
		c-2.3683014-2.3864441-2.3683014-6.2591248,0-8.6395264l12.3188782-12.4276123L151.1257629,319.5740967z M126.4517746,294.6825867
		l-12.3309555,12.4336548c-2.3622665,2.3804321-6.2047501,2.3804321-8.5670166,0l-4.2895432-4.3257751
		c-2.3562317-2.3804321-2.3562317-6.2591248,0-8.6395264l12.3248901-12.4276123L126.4517746,294.6825867z M415.5253296,180.7013245
		l-75.0128174-75.6350555c-4.7547607-4.7910309-11.0621948-7.4251556-17.7804871-7.4251556
		s-13.0257263,2.6341248-17.7744751,7.4251556l-17.6354675,17.774437c-2.7006226,2.7308121-4.6399841,5.9510117-5.8603821,9.3766098
		l-82.4681549-14.892601h-0.0241699c-37.0774384-7.4251556-73.2909164,16.8802872-80.770462,54.283989l-3.8001709,19.0250549
		c-4.2049637,21.0127716,9.3342972,41.5422058,30.1718597,45.7834167
		c20.8436127,4.2291412,41.2099152-9.4128418,45.408844-30.4255981l2.3260345-11.6361694l36.9928436,3.2624817
		l96.5813751,97.3909607l17.502594,17.647583c3.5464478,3.5826721,3.5464478,9.3947144,0,12.9653015
		c-3.5343628,3.5706177-9.3101501,3.5766602-12.8565674,0l-46.8890381-47.2756653
		c-3.2685242-3.2926941-8.5610046-3.2926941-11.8294983,0c-3.2624817,3.2866211-3.2624817,8.6274109,0,11.920105
		l46.8950806,47.2817383c1.7158203,1.7339478,2.6643372,4.0297546,2.6643372,6.482666s-0.9485168,4.7487183-2.6643372,6.482666
		c-3.5464478,3.5705872-9.3161926,3.5705872-12.8565674,0l-46.8890381-47.2817383
		c-3.2685394-3.2926941-8.5670319-3.2926941-11.8295135,0c-3.2685242,3.2926636-3.2685242,8.6334534,0,11.9261475
		l46.8890533,47.2756958c3.5464172,3.5766602,3.5464172,9.3887024,0,12.9713745
		c-1.7158203,1.7218628-4.0056152,2.6764221-6.4222412,2.6764221c-2.4347839,0-4.7185364-0.9545593-6.4343567-2.6764221
		l-46.8890228-47.2817383c-3.2685242-3.2926941-8.5670319-3.2926941-11.8294983,0
		c-3.2685242,3.2926636-3.2685242,8.6334839,0,11.920105l46.8890228,47.2817688
		c3.5464478,3.5766296,3.5464478,9.3886719,0,12.9653015c-3.5403748,3.5706177-9.3101501,3.5766602-12.8505249,0
		L68.6576157,210.9094543c-3.2685165-3.2926788-8.5670357-3.2926788-11.8294945,0
		c-3.2685204,3.2987213-3.2685204,8.6334839,0,11.926178l45.7532005,46.1338196L89.4347534,282.224762
		c-4.3016434,4.3378906-6.6759872,10.1076355-6.6759872,16.2398987c0,6.1443176,2.3743439,11.9140625,6.6759872,16.2579956
		l4.2895508,4.3197632c3.7639389,3.7941284,8.6093063,6.0960083,13.8353195,6.6155701
		c0.5195694,5.2683105,2.8033218,10.1559753,6.5611954,13.9440918l4.2895508,4.3318176
		c3.8605957,3.8908081,8.7784958,6.0899658,13.8292847,6.5974731c0.5135345,5.2743225,2.7972717,10.1680298,6.573288,13.9621887
		l4.2835083,4.3257751c3.763916,3.7941589,8.609314,6.1020508,13.8292694,6.6156006
		c0.5195923,5.26828,2.8093567,10.1559448,6.5612183,13.9501038l4.295578,4.3258057
		c4.4405975,4.4828796,10.2768097,6.7182922,16.1130066,6.7182922c5.8362122,0,11.6663818-2.2354126,16.1069794-6.7182922
		l13.1465607-13.2492981l31.5010223,31.7608337c4.8695526,4.9118347,11.3582458,7.6184998,18.2517395,7.6184998
		c6.8995361,0,13.3822021-2.706665,18.257782-7.6184998c4.6218567-4.6641541,7.243927-10.7843018,7.5097351-17.3273926
		c6.494751-0.2658081,12.5545044-2.9060059,17.1763611-7.5701294c4.7668152-4.8031006,7.2438965-11.0259705,7.5036621-17.3213501
		c6.2470398-0.2658386,12.4216003-2.7610168,17.1824036-7.5701599c4.7607727-4.7970581,7.2438965-11.0198975,7.4976501-17.3213196
		c6.2530823-0.2658386,12.4276123-2.7610168,17.182373-7.5641174c10.0653381-10.1499329,10.0653381-26.6677246,0-36.8176575
		l-11.5878296-11.6844788l42.4122009-42.7626343l29.4891663-29.7308044
		C425.3247986,206.6621857,425.3247986,190.585434,415.5253296,180.7013245"/>
</g>
<g style="display:none;">
	<defs>
		<rect id="SVGID_9_" y="0" width="483.3298645" height="483.3298645"/>
	</defs>
	<clipPath id="SVGID_10_" style="display:inline;">
		<use xlink:href="#SVGID_9_"  style="overflow:visible;"/>
	</clipPath>
	<path style="display:inline;clip-path:url(#SVGID_10_);fill:#00AEC7;" d="M241.6649323,471.2466125
		c126.7955475,0,229.5816803-102.7861328,229.5816803-229.5816803S368.4604797,12.0832462,241.6649323,12.0832462
		S12.0832462,114.8693848,12.0832462,241.6649323S114.8693848,471.2466125,241.6649323,471.2466125"/>
	
		<circle style="display:inline;clip-path:url(#SVGID_10_);fill:none;stroke:#00AEC7;stroke-width:4;" cx="241.6649323" cy="241.6649323" r="229.5816803"/>
	<path style="display:inline;clip-path:url(#SVGID_10_);fill:#FFFFFF;" d="M389.7221375,258.8449097
		c-0.5014648,4.229126-2.4830933,9.4551086-9.0926208,10.6513672c-3.5524902,0.9908142-5.8905945,3.0328979-7.0626526,5.872467
		c-1.3654175,3.4316406-0.8579102,7.7090759,1.4197693,11.3944702c2.3924866,2.7912598,2.7428894,8.5670471,1.3231201,13.5997009
		c-1.9212341,6.0114136-6.3980713,10.2405701-13.3096924,12.536377c-2.9483337,0.3443604-5.588501,2.3804016-7.0083008,5.431427
		c-1.6795654,3.473938-1.2747803,7.2620239,0.9606323,9.8478394c1.9816284,2.7368469,1.5768738,8.9597168-1.1177063,14.0407104
		c-2.1326904,4.0297852-5.1897583,6.4283142-8.1259766,6.4283142c-0.4591675,0-0.8760376,0-1.2808228-0.1571045l-0.453125-0.0543518
		h-0.5074768c-3.6008301,0-8.3374634,1.5466614-10.6695251,5.0749512c-1.5708313,2.3441467-1.7762451,5.1837158-0.610199,7.8239136
		c1.4197998,3.7880859,1.2626953,8.1078491-0.5074768,11.0501099c-1.3231506,2.0904236-3.3531189,3.3410339-6.2047729,3.6853943
		c-4.9299622,1.2989502-9.9143066,1.2989502-14.6871643,1.2989502c-14.2703247-1.2506104-29.4106445-2.6039429-44.061554-5.1897583
		l-6.9599609-1.5406189c-3.6007996-0.7914429-7.2076569-1.5405884-10.3674316-2.3320618
		c-5.2260132-2.5495605-11.1226501-6.8693237-16.7655029-11.0621948c-1.8729095-1.3895874-3.709549-2.7791443-5.5280914-4.0297546
		c-1.3291473-1.0391846-2.7489319-2.3804321-4.2291412-3.7276917c-3.709549-3.3893738-7.8722229-7.2680969-13.0499115-8.6697388
		c-4.9299469-2.9785156-10.1197052-2.9785156-14.330719-2.9785156c-13.6782379-1.202301-20.0762939-6.029541-23.4293976-17.7804871
		c-3.2564545-11.7328491-3.3591461-25.2298279-3.2020721-36.8720398l0.0483246-2.6401978
		c0.1027222-10.9474182,0.3020935-24.6981201,6.0476837-34.6970215c2.8516388-4.7789307,8.5911713-5.7757874,15.2007141-7.0263977
		c9.0865936-1.437912,16.3123627-4.368103,23.0125275-9.4551544c0.972702-0.3443756,1.9333191-1.0451813,2.6885223-2.3320618
		c2.7489471-1.8487396,4.9843445-4.4828796,7.014328-6.9176636c10.8205414-11.5092773,20.7892303-23.4958649,28.6191864-34.54599
		c1.7701874-2.6401825,3.6007843-5.1716461,5.4374542-7.7212219c8.2770081-11.6482239,16.9104919-23.6891785,20.5777588-38.52742
		c2.5918579-10.9051361,2.3320618-20.36026,1.7702026-31.5614319l-0.0906067-1.6916733
		c-0.4168701-6.8209763-0.5618896-14.1373978,3.3953857-14.6871567c0.2597961-0.0483551,0.5618591-0.0966568,0.9243774-0.0966568
		c6.3497314,0,14.3729858,7.8722153,19.145874,15.1886139c4.9843445,9.2497406,7.5762024,18.9586182,7.3284912,27.7250137
		c-0.2597961,9.1047211-3.3047485,17.714035-6.5068359,26.8791962c-3.7578735,10.8023987-7.7272339,21.9915009-6.8149414,34.1472473
		c1.3291626,16.5661316,14.7355042,30.8545685,33.4464111,35.6334839
		c5.4374695,1.4016571,11.2253723,2.2897949,16.8198853,3.1839447c10.4036865,1.6976776,21.1759033,3.3893585,29.9725037,8.222641
		C384.7015686,245.1062622,390.7915039,251.0210114,389.7221375,258.8449097 M399.6364746,231.2165375
		c-10.8205566-10.0532379-25.7554626-12.5000916-38.926178-14.6448822c-2.0783386-0.3443756-4.1203918-0.688736-6.1503906-1.0391541
		c-1.4681091-0.3987579-3.3531189-0.7914429-5.2803955-1.2385406c-17.5871582-4.0418396-29.9845581-7.9145355-30.0389404-22.009613
		c-0.0483398-9.2497406,3.1114502-17.8650818,6.4161987-26.9758759c3.7579041-10.3976135,7.6607971-21.2544098,7.0505676-33.7907867
		c-1.2082825-22.4023438-10.9172058-41.9167633-26.0212402-52.1754684
		c-5.9812012-4.7245407-13.9198914-7.5157547-21.4356995-7.5157547c-11.2313538,0-19.6171265,5.9751587-23.0306702,16.37883
		c-2.3743286,7.0143433-1.9756165,13.8353043-1.5708008,21.0490036c0.1087646,1.7460327,0.2597656,3.5887299,0.3141785,5.4737167
		c0.3987427,9.9565887-0.8216858,18.1732025-3.7579041,25.9366913
		c-5.6489258,15.4846802-16.9286499,29.9724731-26.1239929,40.8171997l-5.0326691,6.2289124
		c-7.014328,8.6516266-14.2703094,17.6657257-22.5594025,24.8914948c-4.0176849,3.1295471-8.3918152,4.2774811-13.9199066,5.4253693
		c-1.5829163,0.0906219-97.2701263,1.0452118-97.2701263,1.0452118v137.7248383c0,0,75.0611267-0.0483398,79.2781677-0.2900085
		c3.7095642-0.2537537,7.2620239-0.4470825,10.5124359-0.4470825h1.5345612
		c3.09935,0.6404114,6.1926727,0.9908142,9.4430542,1.3352051c2.8999939,0.308136,5.896637,0.598114,9.0443115,1.2022705
		c3.5645599,0.6464539,7.2197418,4.0237427,10.7299347,7.3164062c2.0299683,1.8970642,4.0599518,3.7276917,6.035553,5.0810242
		c2.0420837,1.3895569,3.9693604,2.8274841,5.9993439,4.229126c6.1503754,4.3741455,12.5001221,8.9114075,19.671524,12.0953369
		c8.8932648,3.7337036,18.7048798,4.966217,28.2506561,6.1684875c4.6218262,0.598114,9.195343,1.1479187,13.569458,1.9877014
		c2.8999939,0.3020935,5.3347473,0.598114,7.8722534,0.9002075c7.4251404,0.7914429,15.1523743,1.6976929,22.8131409,1.6976929
		c5.2441406,0,9.811615-0.4591675,14.0769958-1.2506104c15.1946716-4.2291565,24.8612671-16.3184509,24.897522-30.15979
		c7.7332764-3.0449829,14.638855-9.3645325,19.006958-17.4723816c3.8666382-7.225769,5.1897583-14.9832153,3.7579041-21.8041992
		c14.6871338-9.4128723,22.2633362-27.0785522,18.2033691-42.2128296
		c6.5068665-4.3378906,10.9776611-11.6482544,12.5001221-20.5596619
		C411.6290588,252.2716064,407.7684631,239.1794128,399.6364746,231.2165375"/>
</g>
<g style="display:none;">
	<defs>
		<rect id="SVGID_11_" x="0.8794326" width="482.4504395" height="483.3298645"/>
	</defs>
	<clipPath id="SVGID_12_" style="display:inline;">
		<use xlink:href="#SVGID_11_"  style="overflow:visible;"/>
	</clipPath>
	<path style="display:inline;clip-path:url(#SVGID_12_);fill:#0084B6;" d="M242.1046448,471.2466125
		c126.5648499,0,229.1639404-102.7861328,229.1639404-229.5816803S368.6694946,12.0832462,242.1046448,12.0832462
		S12.9406929,114.8693848,12.9406929,241.6649323S115.5398102,471.2466125,242.1046448,471.2466125"/>
	
		<ellipse style="display:inline;clip-path:url(#SVGID_12_);fill:none;stroke:#0084B6;stroke-width:4;" cx="242.1046448" cy="241.6649323" rx="229.1639557" ry="229.5816803"/>
	<path style="display:inline;clip-path:url(#SVGID_12_);fill:#FFFFFF;" d="M332.1202393,241.4450378
		c0.693512-3.9451752-0.1869507-7.9266052-2.4846191-11.2072144c-2.291626-3.2866364-5.723053-5.4736938-9.6670837-6.17453
		l-56.0788269-9.9082642l9.8902283-56.1750031c1.4292297-8.1501465-4.0164185-15.9498901-12.1456909-17.3877869
		c-8.1413727-1.4318848-15.9208679,4.0297546-17.3561859,12.1738739l-9.884201,56.1810455l-56.0788116-9.9082794
		c-8.1473846-1.4378967-15.9148407,4.0237274-17.3501129,12.1678314
		c-1.4353027,8.1441193,4.0164032,15.9499054,12.1517181,17.3878021l56.0727844,9.9022217l-9.884201,56.1810608
		c-1.4352875,8.1501465,4.0164032,15.9438477,12.1456909,17.3817444c0.8804626,0.157074,1.7609406,0.2356262,2.6353912,0.2356262
		c3.0454712,0,6.0125427-0.9304199,8.5574493-2.71875c3.2746277-2.3018494,5.4637604-5.7395325,6.1572723-9.6847229
		l9.8902435-56.1810455l56.0788269,9.9082642C322.8752747,255.0568237,330.684967,249.5951843,332.1202393,241.4450378
		 M400.6402588,256.8632812c-11.2893372,64.1559753-86.0570984,104.8704834-166.511734,90.654541
		c-12.1276093-2.1387329-43.0164795-10.9957581-53.2323608-14.9167786
		c-2.4846191-0.9606018-5.2345886-0.9243469-7.7312775,0.0181274
		c-21.7464447,8.5791321-40.0192566,12.3611755-58.8287888,12.1134644
		c10.0349655-10.6453552,18.737175-22.1546326,26.1849899-34.4312134c2.5268402-4.0116577,1.9720306-9.3282776-1.254364-12.7478333
		c-25.4552917-27.5437622-36.3224869-60.2531128-30.6898804-92.2797394
		c11.2893372-64.1257935,85.918396-104.6771698,166.5057068-90.4430923
		C355.5371704,129.0466766,411.9295959,192.7374725,400.6402588,256.8632812 M278.7974243,93.7213058
		c-92.1902618-16.2821732-177.9578857,32.0508118-191.2915955,107.8308945
		c-6.2899551,35.7362061,4.7762604,73.3513641,30.6175079,104.2482147
		c-9.6309128,14.330719-21.3966751,27.5316772-35.0379562,38.926178c-3.1419601,2.7368469-4.5289993,7.0566101-3.4434814,11.0803223
		c1.0794601,4.0237427,4.3963242,6.9176636,8.5031738,7.6426697c30.2255249,5.3407898,56.983429,2.5374756,89.1025543-9.5095215
		c13.677475,4.7547607,40.947998,12.4276123,53.1841431,14.5844727
		c92.1600647,16.2821655,177.9518127-32.1595764,191.2855225-107.9335938
		C435.0570679,184.8108521,370.9635315,110.0035019,278.7974243,93.7213058"/>
</g>
<g>
	<defs>
		<rect id="SVGID_13_" x="0.8794326" width="482.4504395" height="483.3298645"/>
	</defs>
	<clipPath id="SVGID_14_">
		<use xlink:href="#SVGID_13_"  style="overflow:visible;"/>
	</clipPath>
	<path style="clip-path:url(#SVGID_14_);fill:#7E406A;" d="M242.1046448,471.2466125
		c126.5648499,0,229.1639404-102.7861328,229.1639404-229.5816803S368.6694946,12.0832462,242.1046448,12.0832462
		S12.9406929,114.8693848,12.9406929,241.6649323S115.5398102,471.2466125,242.1046448,471.2466125"/>
	
		<ellipse style="clip-path:url(#SVGID_14_);fill:none;stroke:#7E406A;stroke-width:4;" cx="242.1046448" cy="241.6649323" rx="229.1639557" ry="229.5816803"/>
	<path style="clip-path:url(#SVGID_14_);fill:#FFFFFF;" d="M211.9973145,422.5366211
		c0,5.2078857,4.3119049,9.4430542,9.6128387,9.4430542h41.0746002c5.2949219,0,9.6068115-4.2351685,9.6068115-9.4430542
		s-4.3118896-9.4430542-9.6068115-9.4430542h-41.0746002C216.3092194,413.0935669,211.9973145,417.3287354,211.9973145,422.5366211
		 M199.4294891,393.7301636c0,5.2078857,4.3179321,9.4430847,9.618866,9.4430847h66.1198273
		c5.3009033,0,9.6188354-4.235199,9.6188354-9.4430847c0-5.2018433-4.3179321-9.4370117-9.6188354-9.4370117h-66.1198273
		C203.7474213,384.2931519,199.4294891,388.5283203,199.4294891,393.7301636 M124.5652542,189.2574921H96.0584641
		c-5.2948837,0-9.6067886,4.229126-9.6067886,9.4369965c0,5.207901,4.3119049,9.4430847,9.6067886,9.4430847h28.5067902
		c5.2948837,0,9.6067886-4.2351837,9.6067886-9.4430847C134.1720428,193.486618,129.8601379,189.2574921,124.5652542,189.2574921
		 M165.7604828,123.5548172c1.8514099-1.8185196,2.864563-4.2291183,2.8464508-6.7907639
		c-0.0180817-2.5254135-1.0312195-4.8756104-2.8464508-6.6216202l-20.1603851-19.8406982
		c-3.787262-3.733696-9.8721619-3.7276611-13.568924,0.0120773c-1.8393402,1.8547745-2.8344116,4.2955856-2.804245,6.8753738
		c0.0301514,2.4951782,1.03125,4.8151779,2.8162994,6.5249634l20.1724701,19.8527679
		c1.881546,1.8124847,4.3420563,2.7187347,6.7965088,2.7187347
		C161.4666748,126.2856522,163.9090729,125.3794022,165.7604828,123.5548172 M251.684906,82.8584442V54.7951241
		c0-5.2259903-4.2998505-9.4793091-9.5766449-9.4793091c-5.2828369,0-9.5826721,4.2533188-9.5826721,9.4793091v28.0633202
		c0,5.316658,4.2093811,9.4793091,9.5826721,9.4793091C247.3850555,92.3377533,251.684906,88.0844803,251.684906,82.8584442
		 M319.0108337,212.040451c-0.0844116,17.3938293-5.8617554,33.6578827-16.7168884,47.0279694
		c-23.44104,28.9273071-36.2259827,61.9991455-37.0220337,95.7295227h-46.3333282
		c-0.7839966-34.4251709-13.5146484-67.9078369-35.9184418-94.418457
		c-11.5124512-13.6601257-17.8144684-30.9089661-17.7360687-48.5686188
		c0.1567993-39.9834747,33.2528839-73.8286438,73.7666473-75.4477844
		c21.2338562-0.749176,41.2193604,6.7303467,56.3683167,21.1033783
		C310.6282654,171.8515778,319.0108337,191.2331085,319.0108337,212.040451 M338.2485657,212.0464935
		c0-26.0696259-10.4872742-50.3267365-29.5259705-68.3005524c-18.9663086-17.967804-44.0115356-27.3564682-70.4859924-26.3837738
		c-50.7236328,1.9876862-92.1118622,44.3153076-92.2746735,94.3641052
		c-0.0783997,22.2089996,7.8338013,43.8078156,22.2711029,60.8210297
		c20.3051453,24.0456543,31.4859314,54.4048157,31.5040283,85.2774963
		c-0.0542908,0.3443604-1.2121582,8.4884949,2.695694,13.0317993c1.6825409,1.951416,4.0043182,2.9483032,6.9111023,2.9483032
		h65.5227814c3.0032654,0,5.3853455-1.0210266,7.0799561-3.0268555c3.8656616-4.5614319,2.5811157-12.6330261,2.5449219-12.7538757
		c0-30.4135437,11.3617249-60.5249634,32.8609314-87.0718384
		C331.0238647,253.9753571,338.2485657,233.6090546,338.2485657,212.0464935 M352.1612244,103.6476822
		c1.8272705-1.7520752,2.8404541-4.1083069,2.8525085-6.6276627c0.0180664-2.5616226-0.9890442-4.9782791-2.8404541-6.7968292
		c-3.7872314-3.7276611-9.8781738-3.7216187-13.5628967,0l-20.1603699,19.8406982
		c-1.8453674,1.8185196-2.852478,4.2291412-2.8404236,6.7907867c0.0180664,2.5253906,1.03125,4.8816223,2.852478,6.6336975
		c1.9117126,1.8305969,4.3842773,2.7489243,6.8387146,2.7489243c2.4544983,0,4.8908691-0.9243622,6.7121277-2.7610016
		L352.1612244,103.6476822z M397.7588196,198.6944885c0-5.2078705-4.3119202-9.4369965-9.606781-9.4369965h-28.5068054
		c-5.3009033,0-9.606781,4.229126-9.606781,9.4369965c0,5.207901,4.3058777,9.4430847,9.606781,9.4430847h28.5068054
		C393.4468994,208.1375732,397.7588196,203.9023895,397.7588196,198.6944885"/>
</g>
<g style="display:none;">
	<defs>
		<rect id="SVGID_15_" width="483.3298645" height="483.3298645"/>
	</defs>
	<clipPath id="SVGID_16_" style="display:inline;">
		<use xlink:href="#SVGID_15_"  style="overflow:visible;"/>
	</clipPath>
	<path style="display:inline;clip-path:url(#SVGID_16_);fill:#EC7404;" d="M241.6649323,471.2466125
		c126.7955475,0,229.5816803-102.7861328,229.5816803-229.5816803S368.4604797,12.0832462,241.6649323,12.0832462
		S12.0832462,114.8693848,12.0832462,241.6649323S114.8693848,471.2466125,241.6649323,471.2466125"/>
	
		<circle style="display:inline;clip-path:url(#SVGID_16_);fill:none;stroke:#EC7404;stroke-width:4;" cx="241.6649323" cy="241.6649323" r="229.5816803"/>
	<path style="display:inline;clip-path:url(#SVGID_16_);fill:#FFFFFF;" d="M272.3636169,213.0077057l13.4788513-13.5332336
		c18.6625977,21.2121429,28.9091797,48.3450775,28.9091797,76.6440277c0,63.9203796-51.7767029,115.9206238-115.4252167,115.9206238
		c-63.6424561,0-115.4191666-52.0002441-115.4191666-115.9206238s51.7767105-115.9266663,115.4191666-115.9266663
		c28.1781464,0,55.1962891,10.2949524,76.3238373,29.0360413l-13.4848938,13.5392914
		c-17.4965515-15.1403198-39.7357635-23.4596252-62.8389435-23.4596252c-53.1542053,0-96.4001236,43.4332275-96.4001236,96.8109589
		s43.2459183,96.8049316,96.4001236,96.8049316s96.4001617-43.4271851,96.4001617-96.8049316
		C295.726593,252.9186707,287.443512,230.5827942,272.3636169,213.0077057 M262.1411743,223.2784729
		c12.3732605,14.8080292,19.15802,33.4887085,19.15802,52.8400269c0,45.396759-36.7693481,82.3352356-81.9727631,82.3352356
		s-81.9787827-36.9324341-81.9787827-82.3352356c0-45.396759,36.7753677-82.3352203,81.9787827-82.3352203
		c19.2667389,0,37.862854,6.8209686,52.6165009,19.2546539l-13.5151062,13.5694733
		c-11.0984802-8.8509827-24.9096222-13.7084503-39.1013947-13.7084503c-34.7091217,0-62.9537048,28.359375-62.9537048,63.2195435
		c0,34.854126,28.2445831,63.213501,62.9537048,63.213501c34.7151642,0,62.9537201-28.359375,62.9537201-63.213501
		c0-14.2521973-4.833313-28.1237488-13.654068-39.2705536L262.1411743,223.2784729z M238.3432465,247.1730804
		c6.1503448,8.3616028,9.5155487,18.5538177,9.5155487,28.9454193c0,26.8791809-21.7740021,48.7438354-48.5323639,48.7438354
		s-48.5263062-21.8646545-48.5263062-48.7438354s21.7679596-48.7438202,48.5263062-48.7438202
		c10.3553467,0,20.5052795,3.3772888,28.8185425,9.5638885l-13.6903076,13.7447052
		c-4.5674591-2.7489471-9.7693024-4.1928864-15.1282349-4.1928864c-16.2700958,0-29.5072784,13.2915649-29.5072784,29.6281128
		s13.2371826,29.6281128,29.5072784,29.6281128s29.5133209-13.2915649,29.5133209-29.6281128
		c0-5.3830872-1.4378967-10.6030579-4.1868286-15.1946716L238.3432465,247.1730804z M204.4316101,281.2297058l9.3584747-9.4007568
		c0.4108124,1.3775024,0.6162262,2.8153992,0.6162262,4.2895508c0,8.3555603-6.7605743,15.1524048-15.0798798,15.1524048
		c-8.3132629,0-15.0798798-6.7968445-15.0798798-15.1524048s6.7666168-15.1584167,15.0798798-15.1584167
		c1.4681244,0,2.8999786,0.2114563,4.2774811,0.6222839l-9.3766022,9.4188843
		c-2.8093414,2.8214417-2.8093414,7.4130859-0.0060272,10.2224426
		C196.9399872,283.9665833,201.7309875,283.9605408,204.4316101,281.2297058 M343.3768616,160.3972626
		c-4.9541321,4.978302-11.5395203,7.7151489-18.5477905,7.7151489h-7.7634888l35.7543335-35.905365h18.6323547
		L343.3768616,160.3972626z M306.8793945,157.8658295v-7.787674c0-7.0445251,2.7308044-13.6600952,7.6849365-18.6383972
		l28.057312-28.1781387v18.710907L306.8793945,157.8658295z M393.9512939,130.0803833
		c2.0722351-2.0722656,2.6824341-5.1655884,1.5647583-7.8782578c-1.1177063-2.7187347-3.7337036-4.4708176-6.6639099-4.4708176
		h-31.8031006V85.7771606c0-2.9301453-1.7460327-5.5522461-4.4526672-6.6820068
		c-2.700592-1.1237717-5.7939148-0.5074997-7.8662109,1.5708313l-40.3701172,40.5392609
		c-7.678894,7.7151642-11.90802,17.9677887-11.90802,28.8729095v22.2754669l-6.5974731,6.6276703
		c-23.8643799-21.4598541-54.5135651-33.25914-86.5281219-33.25914c-71.5992584,0-129.8465576,58.4949799-129.8465576,130.396347
		s58.2473068,130.3903198,129.8465576,130.3903198s129.8526154-58.4889526,129.8526154-130.3903198
		c0-32.1474609-11.750946-62.9295502-33.1262207-86.9026947l6.5974426-6.6336975h22.1788025
		c10.8628235,0,21.0731812-4.2472687,28.7581177-11.9563751L393.9512939,130.0803833z"/>
</g>
</svg>
